{
    "IPT St1 Efficiency Analysis": {
        "Channels": {
            "IPT St1 Efficiency": {
                "Tag": "eff_IPT1",
                "Units": ""
            },
            "IPT St1 Power": {
                "Tag": "IPT_Stage1Power",
                "Units": "kW"
            }
        }
    }
}