,Condenser UA,Condenser Pressure,Condenser Temperature,Condenser Heat,Ambient Temperature
2020-01-02,1104.233218095359,10361.14336185154,319.6531933411345,355584.53980757104,298.34394488417433
2020-01-03,1099.3387599041664,10186.04417247194,319.31856107963193,355201.00332339207,298.01346786724224
2020-01-04,1089.245761523836,10494.13339370298,319.9041177205619,355519.7102127622,298.5395392427003
2020-01-05,1089.5718601323322,10140.4459978352,319.2306070908382,355212.20948854927,297.8863273674852
2020-01-06,1096.14795559784,10308.084275227313,319.5523087590239,354972.067871294,298.2482302082806
2020-01-07,1101.6480086872143,9872.76701089152,318.7073160588925,354900.991847428,297.4297390229542
2020-01-08,1100.867605610525,9905.557370167911,318.7720697521875,354852.65600183525,297.49428991219645
2020-01-09,1093.7071785966373,10161.408472306552,319.2710835979259,355121.88032362564,297.94861254371176
2020-01-10,1107.445335795699,10267.445174291875,319.47473673719674,354969.8588488872,298.2148639028386
2020-01-11,1093.8212706456825,10082.139432471491,319.11764317877737,355236.4186825332,297.7888779377328
2020-01-12,1111.2306035134318,10201.733720476055,319.34874626138924,355063.9074049733,298.09789456081046
2020-01-13,1113.7083920352227,9351.598698700896,317.65245331108656,354295.3652082142,296.45854589852195
2020-01-14,1088.2300843307337,9745.604513857386,318.45443546000973,354587.16224347835,297.14302059402576
2020-01-15,1090.885314996624,10197.40220864696,319.3404168398888,355066.9097911443,298.00999978200383
2020-01-16,1091.650185493287,10449.139650628926,319.81953142431115,355471.00724993093,298.46751846941464
2020-01-17,1115.363399268255,10042.73925276757,319.0409902593828,355191.8817598416,297.7985148485077
2020-01-18,1104.516559097912,10690.82460071469,320.27026840877534,355710.42782829463,298.95412657815467
2020-01-19,1104.1279197894091,10309.165721162335,319.554369432152,355471.93267497234,298.2515330450435
2020-01-20,1087.8568006212786,10287.431283764388,319.51291919582445,355502.87431225914,298.144102324501
2020-01-21,1095.884251875175,10282.21362828466,319.5029572823344,355510.3106421776,298.1655939890422
2020-01-22,1108.4135881061334,11157.838366593303,321.1169836538689,356127.1365944248,299.79043561433025
2020-01-23,1102.627193006172,10342.751430468472,319.61827399881736,355489.2551129921,298.30851205065505
2020-01-24,1124.5627235324127,9907.183220241612,318.7752756456807,354988.6866226673,297.57985555284245
2020-01-25,1108.1939634408095,10247.69279754555,319.4369379809338,355304.8607569479,298.15993072500936
2020-01-26,1083.7599746086123,10593.484574667926,320.08979522656455,355707.1552757273,298.6917977457769
2020-01-27,1091.5344017137627,10047.057653241432,319.0494042995292,355145.6993604874,297.71707772025184
2020-01-28,1119.057563554352,10477.904726571112,319.87364452813,355564.2927532464,298.6222737639948
2020-01-29,1088.249091659374,10625.978744797092,320.1501988822333,355772.8210059744,298.76625194207577
2020-01-30,1086.3353004882283,10503.14825826042,319.92102778453307,355943.8950752158,298.5192960132203
2020-01-31,1105.7877262384247,10221.660830870518,319.3870266191087,355404.0442413836,298.0948258784653
2020-02-01,1092.0688231545698,10272.087403359968,319.4836111761091,355331.9463662041,298.1418696834236
2020-02-02,1073.385350042715,10117.606289374247,319.18642384425016,355553.7882584213,297.75611155515344
2020-02-03,1093.3952608997552,10316.522093769006,319.5683819204926,355268.6669944093,298.2356299456681
2020-02-04,1103.7751984083018,10478.714310237974,319.87516567553223,355485.4110881592,298.5699059543697
2020-02-05,1105.269211652213,10078.927164203204,319.1114033753019,355201.5227125664,297.82954595195383
2020-02-06,1095.055219831953,10493.910865419815,319.9037001446068,355527.362606647,298.56173307095577
2020-02-07,1099.4843405845786,11162.246452616164,321.124829543149,356390.3606301917,299.74772573700125
2020-02-08,1083.8639137865512,9992.1778232274,318.94224337492994,355154.7094707007,297.57879196072525
2020-02-09,1082.027876768141,10593.078553612804,320.0890394644013,355740.66423356644,298.68202700096856
2020-02-10,1099.36424164529,10637.455293879348,320.1714947982298,355679.1118780468,298.83719000115707
2020-02-11,1100.5931470224552,10925.97851480392,320.7004984732592,356046.66234391154,299.34861522855874
2020-02-12,1100.9649785877614,10631.833887391498,320.1610661690811,355852.78529590013,298.82262788236403
2020-02-13,1089.2506238488183,10386.108054892644,319.7005067307782,355555.9062472622,298.3339288509857
2020-02-14,1082.6860337989638,10313.561123948612,319.56274287027816,355658.74412624084,298.16372084930305
2020-02-15,1092.865028618932,10409.794286456216,319.74530687661866,355522.4637520189,298.39508489624126
2020-02-16,1105.5198371881302,10564.35658784698,320.03551350997805,355767.7881494172,298.71999869873787
2020-02-17,1091.3327076964774,10505.521980126869,319.92547833227604,355849.92820111307,298.5493748155401
2020-02-18,1088.280105423141,10890.66257147509,320.6363962992915,356109.20589771686,299.2320277822085
2020-02-19,1093.7602955666002,10785.668185051944,320.44476009332385,356252.2633929214,299.0537817654666
2020-02-20,1090.840498899567,10848.449706568685,320.5595407879354,356166.5791005592,299.1620127348242
2020-02-21,1099.1831267387197,10697.529516967172,320.28264760390994,355939.5027163418,298.9319430965258
2020-02-22,1101.953914218505,11103.556733486472,321.0201497049308,356198.2138820699,299.66430441433846
2020-02-23,1083.8558040688367,10923.182319371,320.6954295757476,356440.6225001253,299.25329773929354
2020-02-24,1082.9581514287872,10890.540169629696,320.63617381667194,356484.8574836961,299.1877894682079
2020-02-25,1080.8592840295776,10957.220420896449,320.75705764541914,356394.6164475728,299.3055044389472
2020-02-26,1093.6017145158096,11074.8188453885,320.9687189878887,356236.6079368022,299.5777059830711
2020-02-27,1104.7794908377207,11001.999207136663,320.8378824094708,356334.27966308664,299.4850182714143
2020-02-28,1090.629328020539,10633.22590103258,320.16364902352564,355981.3758529526,298.7766760045455
2020-02-29,1082.2925442386272,10578.30133426853,320.0615163914998,356057.6171277732,298.6365343070024
2020-03-01,1090.429034239943,10758.960738624352,320.39575794303823,355808.1070773068,299.0182266799428
2020-03-02,1090.007980723426,10366.976265467149,319.664256696959,355628.990218522,298.2963400433558
2020-03-03,1083.3342277764416,10688.72136626754,320.266383861305,355863.59972570115,298.8571337513815
2020-03-04,1093.6633610092465,11446.807384990636,321.6257732777025,356627.1991254911,300.21117312714443
2020-03-05,1087.132009252612,11244.853558718896,321.2713708492167,356891.77299488185,299.8149710421668
2020-03-06,1084.1660878524458,10565.554029616898,320.0377475466493,355961.85947328893,298.6261143003601
2020-03-07,1093.8700766930876,10499.99729200334,319.9151186271821,356053.40060082177,298.53689026973154
2020-03-08,1095.617263955166,10738.631799817858,320.35838881977435,355722.5022672673,299.0066067878521
2020-03-09,1088.5187146533624,10649.700378903784,320.19419505240376,356361.4028283716,298.77593995740585
2020-03-10,1097.213888335587,10642.095917937137,320.1801003477128,356371.92445454205,298.7957918600463
2020-03-11,1091.8886761886706,11428.684741841049,321.59419061423915,356612.67696191947,300.1734173225391
2020-03-12,1094.1879936064315,10681.265048116464,320.25260719682655,356124.9757835317,298.8710977253074
2020-03-13,1103.0458315721798,11081.22179301124,320.9801879281297,356418.2504253175,299.6154482059946
2020-03-14,1101.3990953231032,10698.894237071485,320.2851664513669,355974.86765014456,298.9410216428023
2020-03-15,1086.381845173637,11119.484757955875,321.0486060508694,356353.0020833533,299.6217013845033
2020-03-16,1112.679643696462,10638.317255059015,320.1730934585433,355947.8071189368,298.8743043881355
2020-03-17,1095.2599146863745,11644.008022084348,321.9666924023724,356785.503769003,300.54874465561494
2020-03-18,1093.1406001686653,11371.257284302334,321.493825956922,356724.1071613837,300.0714052416913
2020-03-19,1091.6070903963068,11350.95014921408,321.4582314844158,356750.6797191192,300.0281268053313
2020-03-20,1092.6146100129774,11264.30298996372,321.30573878560585,356864.5205278637,299.8729052944948
2020-03-21,1084.695978116963,10912.110653713567,320.675348090415,356394.55555443524,299.2393930404714
2020-03-22,1076.2020121182602,11033.088683224703,320.8938322368881,356231.4542584078,299.43300109903106
2020-03-23,1085.392797556888,11183.591800008113,321.16278422794414,356559.933721806,299.71938755829774
2020-03-24,1096.2832167057252,11645.901935498796,321.9699424865186,356920.0316217036,300.54797447531143
2020-03-25,1066.1611081788824,11095.830997496858,321.0063345989224,356366.03977431107,299.4957733630819
2020-03-26,1084.8213218110914,11232.271709300465,321.2491110107669,356184.80128222273,299.82590786786665
2020-03-27,1102.361538493898,11066.288060298331,320.9534298206492,356405.5342200721,299.58679606933214
2020-03-28,1085.8993381573553,11191.97157820155,321.1776675144723,356238.1357916539,299.75564526475966
2020-03-29,1083.2085698530473,11698.20968059597,322.05952735833745,357010.05660130444,300.57972926772663
2020-03-30,1089.179937772239,11650.70315266075,321.9781796694265,357070.7871591252,300.5188554690358
2020-03-31,1082.4960717420736,11293.15938924083,321.3566354603019,356692.0213196214,299.89346391162934
2020-04-01,1069.3881253586155,11725.135196797844,322.10550740835424,357093.2108980304,300.56390794455206
2020-04-02,1087.2321027982623,11544.236174333704,321.79483222155864,356916.14368929446,300.33707159855527
2020-04-03,1086.749024504776,11087.245814821626,320.9909729427408,356388.043272774,299.5634753765445
2020-04-04,1078.4159794272323,11369.6538233952,321.4910173859132,356658.24858793465,300.01318749155325
2020-04-05,1111.430720886506,11163.841570373575,321.1276680148454,356929.4999381935,299.764736278643
2020-04-06,1083.229771022067,11843.076203761271,322.30585089081444,357389.2783301447,300.8032086873113
2020-04-07,1087.9731201553243,11158.238657059192,321.117696235014,356618.13115494826,299.68121251500605
2020-04-08,1089.377036795196,11354.385346516336,321.4642565593598,356831.16613604315,300.02039881490725
2020-04-09,1099.696047644531,11653.69819869867,321.9833166290232,357126.9554064406,300.56240049302994
2020-04-10,1093.9268933747644,11024.698380005211,320.8787460757216,356536.67305435025,299.4710724894085
2020-04-11,1080.4927212818234,11687.582282093614,322.0413542076494,357046.82324110944,300.548313317204
2020-04-12,1104.4713083700317,11922.477867656811,322.4397664998618,357317.5904504835,301.025918494764
2020-04-13,1083.8891296651636,11474.003147228375,321.673087391246,357020.2368999284,300.19564207877914
2020-04-14,1090.928109205724,11177.730400081207,321.15236812903674,356742.31919417303,299.72023682147244
2020-04-15,1090.2016344664964,11342.687988383455,321.44373386948666,356524.8059258792,300.0215889118137
2020-04-16,1091.5401731711568,11777.526676170715,322.1947159905211,357127.8133573092,300.7413042699904
2020-04-17,1086.0047666126625,11352.026264899368,321.4601190778918,356832.505987349,300.0026293304745
2020-04-18,1101.4423934550168,11447.516951860907,321.62700897951163,356707.9162640619,300.238260187985
2020-04-19,1081.674088741506,11691.789325664397,322.0485500656758,357123.2085219689,300.5557198905752
2020-04-20,1079.265361989155,12152.97650685246,322.8242275341072,357546.9154007095,301.2957066228192
2020-04-21,1086.326932967744,11517.147097817731,321.7479504118466,357086.1795453881,300.2763505640572
2020-04-22,1097.447902638802,11339.907231559897,321.4388524358245,356746.2957555894,300.0321998719683
2020-04-23,1096.6265620477063,12145.202640533107,322.8113634166526,357622.6338291856,301.3482054188848
2020-04-24,1082.7701923971863,11525.768752666896,321.7628817691913,357064.63508236804,300.2781805396676
2020-04-25,1094.2410922591048,11777.868091525255,322.1952962112424,357136.322740708,300.7521358090749
2020-04-26,1076.7375791357006,12342.761849132885,323.13611386686694,357707.09686918405,301.587450886594
2020-04-27,1090.966587476185,12293.976268529612,323.05633626377914,357766.6586166453,301.5618772939817
2020-04-28,1062.7338551227408,12100.1811152308,322.7367230470132,358005.2784060738,301.1118837493405
2020-04-29,1068.6847422843357,11839.15613935813,322.29921953686363,357766.0237104193,300.71401732394145
2020-04-30,1076.3232484014104,12119.39878053558,322.7686127549744,357415.58650840155,301.23595615799746
2020-05-01,1059.0651761666966,11811.010218029807,322.2515512514283,357224.85707518505,300.65854756367474
2020-05-02,1084.7245603555682,12187.623579864408,322.8814754860957,357702.1425918163,301.3658177020232
2020-05-03,1094.524860358055,11802.156642844951,322.23653657318084,357354.98443706793,300.78136080674227
2020-05-04,1083.1691084088734,12240.437890632522,322.9684734973355,357609.9711942099,301.45201129747744
2020-05-05,1083.982876523241,11872.75195605098,322.3559907009385,357311.14027483563,300.8610774875082
2020-05-06,1094.5896340098743,12068.854165614865,322.6846459960652,357588.82019214693,301.21548466494403
2020-05-07,1082.0341316855347,12014.372854262389,322.5938009597709,357656.6431876911,301.07008009882054
2020-05-08,1081.1908422320548,11916.932529674612,322.4304388512608,357778.60509654635,300.8960209635931
2020-05-09,1084.2268678082985,12343.136564457804,323.136725580441,357839.8850751973,301.6106618619354
2020-05-10,1089.070385634279,11818.30714277462,322.26391876583114,357503.469565202,300.7780173881693
2020-05-11,1074.4803444083554,12349.60771675491,323.14728706646486,357874.7300490628,301.5792188556491
2020-05-12,1070.9947066233722,12227.729065498454,322.94756842875097,358023.83905719395,301.3561469336026
2020-05-13,1065.222984447913,12549.89231115046,323.4718458460144,358149.54256740754,301.8484866575355
2020-05-14,1069.7152725057365,11771.179322238537,322.18392630604114,357497.3183278518,300.6192818791504
2020-05-15,1077.7672488525182,12398.577601849514,323.22705672544225,357889.77319578425,301.6715891850691
2020-05-16,1091.5309950120018,12214.05947961386,322.92506216966126,358115.2412865994,301.4119848129204
2020-05-17,1063.8928733227694,12072.622214485702,322.6909160262061,357868.1827216005,301.0792645421546
2020-05-18,1083.9928128826527,12420.927697402109,323.26337423370273,357980.85580011935,301.7278333267692
2020-05-19,1066.0222531778395,11945.19814288304,322.4779447775119,357632.2498518698,300.88958405411927
2020-05-20,1073.2331359216475,12522.424491045338,323.4275984992192,358022.0251451045,301.8453863931961
2020-05-21,1084.1781693040894,12249.500450314416,322.9833693647013,357825.35709977784,301.45804433660857
2020-05-22,1093.6938085090187,12661.745416653755,323.6511746599311,358264.5056646356,302.1375071419548
2020-05-23,1081.1971424673206,12633.794029629478,323.6064891880911,358297.86872369715,302.0403653500097
2020-05-24,1054.269328158811,12391.52684383255,323.215588036511,358047.89117498713,301.55191839692554
2020-05-25,1085.740091318657,13315.212029768312,324.67250334433686,358902.25636703405,303.0882090896657
2020-05-26,1098.5326360446047,12618.448633540997,323.5819206813868,358306.00978763314,302.0850197851261
2020-05-27,1089.7537330492391,12726.16980790571,323.7538478105106,358177.64529318805,302.2295776150898
2020-05-28,1073.622455858816,12348.907468877838,323.1461444297488,357906.1528158293,301.5726361577306
2020-05-29,1080.1366776509765,12509.813699065442,323.4072561570042,357711.2055337182,301.87217490160066
2020-05-30,1080.3821956062063,12443.307554059898,323.29968400013934,358195.65490026306,301.736492991492
2020-05-31,1071.2299920705443,12605.134412406083,323.5605833949895,358000.8644593109,301.9712839238282
2020-06-01,1085.7829067098546,11958.31060096496,322.4999501051198,357757.57053442515,300.9854150601205
2020-06-02,1087.3638573401813,12396.010344625616,323.22288149936986,357973.0921753598,301.701468533348
2020-06-03,1074.8698158663922,12418.585027763258,323.25957017200824,357945.7002891801,301.68879047789693
2020-06-04,1086.079912759632,11848.20855798208,322.3145301612943,357501.2549587286,300.8166915034401
2020-06-05,1078.1847614263104,13068.22542952233,324.2916351345158,358484.66235802387,302.7017063559327
2020-06-06,1095.5347665092002,11876.907454720404,322.36300319882054,357752.8521552928,300.88790389249726
2020-06-07,1096.533476138843,12093.405064806948,322.7254685393542,357482.2444845336,301.27040170752656
2020-06-08,1073.0207609277998,12274.86145783369,323.0250043455261,357672.10594367626,301.4631584471271
2020-06-09,1089.4992184823018,12573.246771873097,323.5094018079576,358096.65091674385,301.98905860201376
2020-06-10,1089.5952211078452,12441.015518729786,323.2959679064955,358256.00283390767,301.7665168218585
2020-06-11,1089.4327733370849,12195.942414005149,322.895200055277,357756.5297943058,301.3952629592853
2020-06-12,1074.17380120134,12032.421543164766,322.6239353764836,357959.0515970809,301.04974660705807
2020-06-13,1069.0982113118432,12658.511865926574,323.6460095577278,358277.6081401188,302.03110706088205
2020-06-14,1066.117520882998,12292.42134612813,323.05378908434284,357918.8189171923,301.4482778811483
2020-06-15,1076.361530907422,12612.790865433506,323.5728559373511,358185.914084655,301.99364320193706
2020-06-16,1103.432284482837,12313.89489045088,323.0889413269217,358045.2502521011,301.6271529838802
2020-06-17,1074.1703708510709,12415.704381382271,323.2548916921314,357921.35162946786,301.68269081374723
2020-06-18,1070.523020111936,12834.134377554905,323.9249163098714,358384.4522220559,302.3094221802111
2020-06-19,1077.0843058790806,12675.53326138934,323.67318594910125,358572.4009703792,302.0736408203716
2020-06-20,1084.081664042047,12668.007574295829,323.66117428357313,358581.36913792486,302.08973492272577
2020-06-21,1084.213465979442,13067.976645540928,324.2912483965525,358770.55513327924,302.7087698088572
2020-06-22,1073.490977897431,12692.168222329185,323.69971515007416,358321.2102817677,302.1004443628228
2020-06-23,1080.3683084711677,12605.390644498708,323.5609942132116,358424.7820925907,301.9838603680462
2020-06-24,1077.7669729871643,12704.392845953937,323.71919181477915,358306.66854963935,302.1384412123654
2020-06-25,1074.0927837137144,12646.359455486892,323.6265878245757,358375.80870135094,302.0265457309423
2020-06-26,1084.312341712464,12859.01952543558,323.9641715339482,358532.4728235189,302.39651023877184
2020-06-27,1081.4407983606882,12292.350843857428,323.053673585257,358025.7454001468,301.5051288882698
2020-06-28,1079.2306905614855,12282.105814329456,323.03688380623544,358038.2805696638,301.4785556904746
2020-06-29,1056.3554276376872,12706.20531510932,323.72207813153057,358328.05585325044,302.0502169347397
2020-06-30,1081.3709786765305,12671.556632588665,323.66683965797904,358369.29814989463,302.09710693703386
2020-07-01,1066.3823278946995,12453.581201052864,323.3163335314815,358209.509221174,301.69428726454066
2020-07-02,1091.0672700086448,12703.0571827717,323.7170645750153,358332.23363993946,302.1887962509422
2020-07-03,1084.8920451076497,12405.294238335042,323.23797673589286,358088.2059017246,301.6996393571821
2020-07-04,1090.849558537015,12844.163295680735,323.94074432684545,358527.6717192024,302.39979096257184
2020-07-05,1072.4139454076603,12463.62825961382,323.3326044663513,358213.0952353022,301.73551631188576
2020-07-06,1073.5140816025842,12703.431613551931,323.71766093035774,358463.9917293917,302.1098758362935
2020-07-07,1073.4269484142624,12494.346932763634,323.3822828527123,358308.1364961404,301.78364998510074
2020-07-08,1068.3718557326083,13196.074868575271,324.4895492143942,358808.0126458899,302.83935364587444
2020-07-09,1090.373254312481,12462.684285056135,323.33107620429234,358213.1258402749,301.8073141537215
2020-07-10,1074.7137557761794,12645.20459591157,323.62474131937654,357993.8715438245,302.05027941642254
2020-07-11,1060.8484331577106,13107.415367713797,324.3524777888085,358685.981537485,302.6779436347828
2020-07-12,1069.593423420515,12422.644902206916,323.2661622656028,358275.07348453713,301.65362288032634
2020-07-13,1062.1092439073957,12423.955469376588,323.26828986347505,358273.485010513,301.6243872082295
2020-07-14,1081.6593244002588,12875.965685449964,323.99086610765653,358572.5079543522,302.409977641381
2020-07-15,1075.6472721666123,12786.85880765783,323.8501611556794,358677.5628606749,302.23829331463884
2020-07-16,1078.8099546592318,12347.903821359896,323.14450662064127,358148.58284789947,301.5777704244714
2020-07-17,1074.5211658533149,12691.246956031837,323.69824670741616,358344.2525762698,302.1018536509665
2020-07-18,1071.829449482325,12700.820180544491,323.71350139097626,358332.8630761145,302.10662667735403
2020-07-19,1082.3049763816157,13348.887449170596,324.72396308842184,359037.63668837183,303.1175261802142
2020-07-20,1073.2023858537646,12069.55402417767,322.68581068708875,357959.7772678648,301.10752985725753
2020-07-21,1050.5196522887622,12859.577785753374,323.9650514180763,358412.8678568703,302.26285740711285
2020-07-22,1076.4656112511825,12615.313881953958,323.5768986860809,358702.6727931549,301.9669919207801
2020-07-23,1047.1858061491175,11882.57101850104,322.37255720179,357755.3040064503,300.6963741258497
2020-07-24,1076.6777940045931,12947.756018397004,324.1036215149969,358431.15502594045,302.5107671155355
2020-07-25,1083.806432756661,12474.745082007836,323.35059475392177,358263.4388790022,301.79726910436915
2020-07-26,1081.520422863107,12179.529108168066,322.8681133597006,357940.58233385644,301.3250954252081
2020-07-27,1076.0250248806735,12575.510254259209,323.5130385006837,358320.7081204493,301.92434180046394
2020-07-28,1055.0227731134094,12331.426523117663,323.1176016936995,358158.73075252643,301.450502068664
2020-07-29,1066.746331988077,12322.864591220545,323.1036091849577,358169.17753080773,301.4856095603658
2020-07-30,1070.2971914596185,12645.274209361767,323.6248526284298,358394.0804894741,302.00793857250835
2020-07-31,1077.4219352957891,12279.959054160145,323.03336412666806,358110.29087420244,301.4632788835813
2020-08-01,1077.2432793559246,12161.370743561549,322.838110311654,358256.065579088,301.2585963934613
2020-08-02,1056.606786759939,12646.232108679378,323.62638421683147,358325.11711435235,301.9558104279743
2020-08-03,1077.96902569535,12804.1178496485,323.8774796681242,358137.6429255974,302.30768365769904
2020-08-04,1067.673010364187,12493.674546024822,323.3811965871941,358508.1777427276,301.7465202943516
2020-08-05,1069.3940543231106,12631.159145060188,323.6022724670953,358343.11940954014,301.9846706327936
2020-08-06,1051.3852181429595,12324.464613517168,323.10622468673057,358293.085354324,301.41534538513
2020-08-07,1074.2742364193723,12512.77591679014,323.41203606005456,358064.765322947,301.83156389996725
2020-08-08,1073.0533518654186,12237.627321446596,322.96385192451544,358399.3801253268,301.3583407355566
2020-08-09,1067.6073506257933,12403.36000617433,323.23483255148915,358197.06666815263,301.61870643803746
2020-08-10,1079.303149346873,12692.21593017649,323.6997911910038,358504.4847179394,302.11344706058395
2020-08-11,1079.897751393226,12421.137701822734,323.2637152119484,358206.0864762345,301.69792802148083
2020-08-12,1061.723101511672,11702.57438393116,322.06698701986414,357660.7145860991,300.4590107925123
2020-08-13,1085.9457415980287,12088.606817777369,322.7174957419484,357807.96540920634,301.2004904389392
2020-08-14,1053.0423873572267,11830.21153136841,322.2840813867018,357639.45526891964,300.6402718857661
2020-08-15,1073.9767277285123,12079.398240504008,322.70218710540814,357748.5311693499,301.1398311562064
2020-08-16,1070.3358567909816,12011.58333804506,322.5891400688356,357832.92974053987,301.00664651998426
2020-08-17,1074.9189783911888,11827.56961925553,322.27960824863214,357608.65919928096,300.72976965313563
2020-08-18,1069.1006490292127,12314.0221212159,323.0891494472771,358095.7979239431,301.485435586123
2020-08-19,1089.1106541881466,12250.5583434711,322.9851075770227,358173.47505714634,301.45878914052935
2020-08-20,1054.7333606969898,12377.91378232479,323.19342933358223,358017.94264294486,301.533571442728
2020-08-21,1064.4956964331857,12343.787663825322,323.1377884463099,358059.4841414345,301.5169346994188
2020-08-22,1068.4378890872056,12030.517090908914,322.6207574992104,357951.775921643,301.02316663522777
2020-08-23,1073.147680856089,11680.612960225077,322.0294287703179,357672.72635411285,300.4685400625676
2020-08-24,1076.6413507254033,12335.172567992868,323.1237211228116,358160.38527909154,301.5473703333734
2020-08-25,1082.1763816652526,12371.488671762858,323.1829635802592,358116.15487758536,301.63192708167577
2020-08-26,1056.7170981934958,11885.317661095658,322.3771891729885,357759.88594103337,300.7417923619988
2020-08-27,1051.414109890441,12327.44443968734,323.11109493073127,358064.1161996625,301.43419479697536
2020-08-28,1072.7217827630625,11674.97017873373,322.0197687458119,357571.64890706504,300.4632125617858
2020-08-29,1055.9455046912944,12179.946998061389,322.8688033870218,357854.2167811643,301.2241757918656
2020-08-30,1073.3461965879037,12099.494100827533,322.7355822143122,357953.6777696073,301.1582419843458
2020-08-31,1070.2313218855463,11999.622783884017,322.5691451258076,358077.9362896905,300.9714540222625
2020-09-01,1042.2484931339022,12092.200420324958,322.72346714964806,357529.27519147145,301.0392498149337
2020-09-02,1059.7205378613337,11729.611813104131,322.1131432308557,357984.9250117165,300.4770733943846
2020-09-03,1066.372805051488,12445.748054512247,323.3036401562713,358215.95715851744,301.6811698385017
2020-09-04,1076.0644268779424,11509.990564275824,321.73554912648973,357635.3399366433,300.1891101298949
2020-09-05,1058.384663636189,12022.198798213749,322.6068720623596,357688.9348063663,300.982760884877
2020-09-06,1067.7792797615157,11692.15311039821,322.04917219000373,357596.7397953703,300.47052578654336
2020-09-07,1068.2394585059917,12412.506292144844,323.2496965605083,358234.07742756983,301.63397801755127
2020-09-08,1076.6508685970548,12015.112603105536,322.59503682075285,357953.41563280823,301.0314186481747
2020-09-09,1071.8054036301917,11563.404116368449,321.82794827882617,357632.7787140481,300.26401322993127
2020-09-10,1082.421885787517,12118.889652255428,322.76776846928715,358129.9424662099,301.2170774304295
2020-09-11,1068.9257552853762,11512.601881886862,321.74007494636953,357478.27325800766,300.17352687931344
2020-09-12,1070.3636611118875,12034.67006045152,322.6276868248309,357785.8593954742,301.0481290201822
2020-09-13,1071.625862059056,12256.00116379985,322.99404857936,358041.91243449424,301.40414198406535
2020-09-14,1069.3867669975484,12024.793973810278,322.6112049830675,357896.2531731342,301.02092840068786
2020-09-15,1066.6133633162794,11174.868334078044,321.14728034236646,357043.6288045314,299.5976430255059
2020-09-16,1054.377568585003,11816.741817036824,322.261266256656,357523.4507775634,300.6302153250892
2020-09-17,1056.0312422031989,11665.921039982157,322.0042689213934,357715.31461529894,300.3688291731307
2020-09-18,1075.17380967811,11905.25889480069,322.41079079901806,357411.82064713695,300.87379497640893
2020-09-19,1064.1787686445243,11248.958666105364,321.2786289881504,357334.0985181424,299.7011746372536
2020-09-20,1083.9979903626488,11294.899153669476,321.3597004717991,357273.5761660271,299.86764388564205
2020-09-21,1057.1884777152509,11905.922046185044,322.4119074007724,357695.7700836119,300.7823806306535
2020-09-22,1057.2260941562276,11554.433729932009,321.8124561976758,357505.78082045563,300.19488736410005
2020-09-23,1071.3013944671943,11870.364264578237,322.3519604649738,357676.3980486062,300.7830315655171
2020-09-24,1047.8603957196133,12115.1370644364,322.76154462704807,358059.56295444176,301.0696810886599
2020-09-25,1061.1275192457342,11694.793652848535,322.053687400374,357631.74267326057,300.44494829202614
2020-09-26,1081.4542579061874,11414.580480803235,321.5695810959345,357258.5309558368,300.0679766244502
2020-09-27,1063.181287268738,11263.12179617277,321.30365302190626,357457.0554981152,299.7145630085715
2020-09-28,1054.0853376884363,11286.9564571581,321.34570421011745,357425.6629869674,299.7198269421559
2020-09-29,1067.9939048695323,11411.835563519817,321.5647886514705,357262.10870367254,300.0074894475034
2020-09-30,1077.890757626917,11875.990944411287,322.36145674793204,357796.0987392922,300.81251731456126
2020-10-01,1074.2379486957327,11483.81363780547,321.6901316708181,357405.566193479,300.15002941534595
2020-10-02,1068.824283536169,11360.978630208754,321.47581629477224,357565.5611507469,299.903733443009
2020-10-03,1087.2557416295172,11750.199932189546,322.14822848778374,357574.8551902247,300.65079359216094
2020-10-04,1051.7918990753683,11664.621707035934,322.00204251087,357683.99142676883,300.350304936102
2020-10-05,1065.2408708958565,11528.605386317531,321.7677922789045,357858.8710641822,300.1628455174948
2020-10-06,1037.5034599391136,11323.555041649395,321.410126446004,357492.43509015,299.7079433050017
2020-10-07,1067.1128556506053,11489.283402643,321.6996291538196,357276.310079566,300.1377158996852
2020-10-08,1070.25707281287,11056.366097886215,320.9356345993744,357069.78518782754,299.3997409312281
2020-10-09,1064.39613983266,10860.081179048702,320.580743415075,356815.0765655928,299.0359806651361
2020-10-10,1055.18327491197,11035.04552837646,320.8973493197601,356578.7265362306,299.3276638436246
2020-10-11,1058.693426175322,11316.789053329989,321.3982301760419,357165.0598921918,299.8077335212544
2020-10-12,1079.0305207876445,11389.70806950277,321.5261193228988,357069.5860914775,300.0260232222832
2020-10-13,1065.286856830755,11142.394494795804,321.08947431187653,357395.55484644906,299.5130838524138
2020-10-14,1059.8760705720915,11819.01073719371,322.2651109374619,357753.1325819204,300.6436259262049
2020-10-15,1054.0924449838867,11037.3016977516,320.90140372019084,357036.2750155441,299.29938678741945
2020-10-16,1066.9929356647192,11350.12324042951,321.45678091550155,357308.7062271807,299.8925521159516
2020-10-17,1073.227547088282,11276.47027236193,321.3272129702596,357405.4329985298,299.78315645259295
2020-10-18,1052.036899608422,10906.617098957526,320.6653775332543,356914.36791265843,299.0620763328056
2020-10-19,1050.7230465740072,11598.375374746514,321.8882461911468,357557.61158016114,300.2396090922802
2020-10-20,1051.3729097982248,11178.702651898551,321.1540962098321,357257.3817759986,299.52686348444587
2020-10-21,1067.9550606874177,11140.013605848471,321.0852304492578,357308.79172104,299.5252441775432
2020-10-22,1061.3249410593078,10705.606417003668,320.29755102454214,356733.22932093486,298.74500584805713
2020-10-23,1055.856733650846,10899.30910582061,320.6521071626364,356901.0222459361,299.0659754103144
2020-10-24,1072.2476740522532,10457.23116972055,319.83476618770794,356445.6202194991,298.34551553638954
2020-10-25,1058.5887948358088,10972.07694295158,320.7839047523332,356831.29883387644,299.21351991868096
2020-10-26,1050.3144011357824,10447.986397314377,319.81735924614605,356547.797161435,298.2294519554555
2020-10-27,1056.839400629171,11220.902620469662,321.22897836990273,357109.51127615233,299.63405627959537
2020-10-28,1055.88842002663,10814.71999561778,320.49794539225866,356855.1185904986,298.9148308604421
2020-10-29,1060.1274639653825,10653.051910363503,320.2004042982961,356638.6902169764,298.6485813188376
2020-10-30,1069.8726729894115,10991.755402859004,320.8194175179717,356869.38176570786,299.2940841460497
2020-10-31,1084.0769339947003,10299.25620597612,319.535480098985,356365.88973833737,298.0995852189681
2020-11-01,1061.1525211473015,11288.423604821715,321.3482901881979,357115.3552354216,299.7712431444343
2020-11-02,1043.012339438004,10735.121831127117,320.35193056245794,356842.5177403635,298.7140944351942
2020-11-03,1073.7004171580818,11037.714688409907,320.90214579905745,357151.8859172261,299.37558473213863
2020-11-04,1055.19275798876,10669.561449620694,320.2309663720332,356797.05285634805,298.6485858420492
2020-11-05,1067.51390331741,10699.601044664392,320.2864708891143,356755.61889668845,298.7585469920957
2020-11-06,1066.459130097245,10561.507098856498,320.03019641561525,356946.92628972704,298.486518249833
2020-11-07,1043.9240916833278,10896.298603536956,320.6466382568211,356486.75275914086,299.034130900682
2020-11-08,1048.5362727556503,11173.68419049729,321.1451750077811,357214.76486838365,299.5082787941822
2020-11-09,1063.4584112791033,11413.99189665645,321.5685535501822,357504.07097110734,299.97763488269703
2020-11-10,1063.962646334167,11082.479547244557,320.9824401448622,357345.0902419792,299.4036002873685
2020-11-11,1050.4875151595966,10933.466126878024,320.71406640949454,357105.3970675153,299.0925047521684
2020-11-12,1065.295694784818,10454.359737040471,319.8293609962295,356509.3359617989,298.3073676725462
2020-11-13,1070.2723814728631,10792.457367578156,320.4572000948676,356707.7314446359,298.943517435305
2020-11-14,1048.883762995307,10596.256717406815,320.094954590939,356978.14684773696,298.47461602755226
2020-11-15,1061.684027625939,10603.132770847666,320.1077469303907,356968.5974625722,298.54264537243694
2020-11-16,1041.4337270534306,10867.17346802318,320.59366214249576,357066.42716463347,298.93516951053346
2020-11-17,1058.189003361162,10974.526367688848,320.78832809028427,356921.1070423417,299.21081706441976
2020-11-18,1065.5706533584598,10299.844741825724,319.53660239136696,356447.8177042707,298.01970321613925
2020-11-19,1036.4125779274136,10810.096451591957,320.48948926557694,356917.1231769958,298.81799910349605
2020-11-20,1080.468565747484,10678.88448608976,320.24820701166925,357097.2404670523,298.7531459210646
2020-11-21,1065.5705448054307,10338.243704285014,319.60970738265763,356448.3070979885,298.09271926696704
2020-11-22,1059.7516804947277,10607.723024806925,320.1162827580109,356817.08268586313,298.5521579730012
2020-11-23,1068.1372709713744,10362.164403731638,319.65513035308686,356380.7887339832,298.152886409546
2020-11-24,1059.5161083016214,10936.18390724234,320.7189891923782,356968.14085307845,299.1443129590298
2020-11-25,1056.348918505044,10413.01129159061,319.7513847611582,356644.74585410644,298.1835064102371
2020-11-26,1043.0144917832931,10411.964531317337,319.7494072951972,356646.2219980211,298.1239358524312
2020-11-27,1066.3816203524684,10307.942580554827,319.5520387489508,356793.553647338,298.0176622097187
2020-11-28,1050.4603519638952,10505.550882511605,319.9255325167204,356514.74716169253,298.34016946980125
2020-11-29,1053.9878049074584,10445.926509698696,319.8134788893609,356598.39361361746,298.2382779166245
2020-11-30,1063.6645207962392,10381.919204993275,319.69257480159763,356688.6464193813,298.1530299364084
2020-12-01,1056.5126158491405,10562.410163959052,320.0318816520147,356435.35870558774,298.4771381002747
2020-12-02,1055.9758390142024,10158.453853168205,319.2653828638191,356261.6392732567,297.7194686350046
2020-12-03,1043.6558241507855,10271.733171678505,319.48293412135195,356099.2432277247,297.8936200773338
2020-12-04,1051.1466317902336,10263.301920980026,319.4668132646269,356111.2770472576,297.90917798590147
2020-12-05,1055.8944018554616,10142.622324164084,319.23481271134943,356284.4589559721,297.6871985872153
2020-12-06,1043.5006134427394,10056.192617660276,319.06719276661914,356409.581694662,297.45875380522875
2020-12-07,1056.7705479903568,10718.301745110048,320.3209568104353,356844.8625926308,298.742347505431
2020-12-08,1054.6915896937976,10854.84018497549,320.5711921959147,357161.72973242094,298.9643779265866
2020-12-09,1052.2314307466108,10439.449430372406,319.80127326762306,356810.2559346999,298.20574300492666
2020-12-10,1056.6875731646787,10940.109148802803,320.72609722511226,357157.76546296134,299.12793873195005
2020-12-11,1056.0171732296344,10129.885257279702,319.2101880637488,356480.57599669084,297.65126465798585
2020-12-12,1059.5355325424864,9892.873117610534,318.74704306163096,356150.7053041868,297.2233832949446
2020-12-13,1042.418871616354,9925.761314728068,318.8118763241649,356102.31000341265,297.21756471568466
2020-12-14,1047.7235481437938,10683.410310981404,320.2565717377621,356878.2088713866,298.63714175690984
2020-12-15,1048.803640369178,10791.545204268565,320.4555291045609,357127.5871918177,298.8255330085711
2020-12-16,1056.1821820022212,10387.1391657864,319.7024588016568,356725.1798655662,298.1290478606826
2020-12-17,1052.5980533073723,10370.980110357705,319.671847753047,356748.0304275813,298.08175758254936
2020-12-18,1060.5397369021443,10227.934372589654,319.3990649324754,356514.6250677748,297.85710389378687
2020-12-19,1043.7591407610182,10390.096327736932,319.7080562958833,356722.2463625356,298.08126197412673
2020-12-20,1049.9670189138958,10380.985698661389,319.69080675633063,356735.1228194862,298.0901678346788
2020-12-21,1055.4327260774362,10282.406057355358,319.50332475857533,356875.07408829365,297.91781930639286
2020-12-22,1038.4670384669407,10680.358528429582,320.2509317025908,357099.7159333237,298.5776173709056
2020-12-23,1039.5195787157463,10532.406216486954,319.9758239974493,357305.08186483965,298.2949037667421
2020-12-24,1052.4750389545018,9822.63505679846,318.6079580348176,356096.336935898,297.05767529089064
2020-12-25,1067.6306497246287,9956.129364515647,318.8715776968142,355899.55619873543,297.39690245098166
2020-12-26,1036.0786761704203,9868.544069668777,318.6989632444777,356028.4056440007,297.0813921849691
2020-12-27,1048.519083080458,9815.635167174523,318.5940500558136,356106.7185994344,297.0261473659525
2020-12-28,1048.6027233509806,10370.709753715582,319.67133525195794,356732.4809367877,298.064982707948
2020-12-29,1044.0472755431024,10272.424166228737,319.48425482353343,356872.1323462294,297.84981922247727
2020-12-30,1055.285278379121,10004.258508300129,318.96587605523405,356233.9842056113,297.4189516320309
2020-12-31,1062.6211362482156,9964.141708132134,318.8873032654867,356292.6357592773,297.3679534482797
2021-01-01,1051.6500554634304,10561.592795455355,320.03035634188177,356870.1776150176,298.4285260232444
2021-01-02,1065.9041463927676,10476.07562167986,319.87020740432774,356989.7269013546,298.3217477973803
2021-01-03,1035.4868284768093,10242.743639336257,319.42745730672186,356686.3279987988,297.7666994189329
2021-01-04,1036.5990532224057,9834.04593742101,318.63061188088847,356211.39695311425,297.00430032863886
2021-01-05,1039.696599321588,10694.983608756873,320.27794791372924,357026.0536242281,298.6144988208607
2021-01-06,1019.783782771388,10364.852738366077,319.6602295907869,356793.3992481402,297.92209527798985
2021-01-07,1050.4568388920952,10599.9616516886,320.1018482065272,356918.24326992483,298.49191962239854
2021-01-08,1047.9402383881636,10637.617520481352,320.1717956848196,356866.0279316673,298.5541044831963
2021-01-09,1032.8450975873716,10874.073541339756,320.6062237966796,357286.83871787845,298.896349533179
2021-01-10,1050.514510991101,10391.855453763676,319.71138542599624,356923.1872947521,298.101709842498
2021-01-11,1025.1385302828423,10158.59275486418,319.26565089700773,356535.6570790891,297.5678716632898
2021-01-12,1023.5162356077695,10343.670580089774,319.6200203839913,356794.5883524112,297.89884453047074
2021-01-13,1051.4640244414209,10445.96802053852,319.8135570927749,356650.1167453384,298.224407828329
2021-01-14,1019.6443026369,10579.20558646392,320.0632015406702,357007.09400735906,298.31109545657694
2021-01-15,1032.7630156632642,10306.608535853822,319.54949646794176,356977.44360005925,297.8588561555154
2021-01-16,1038.6266867487773,10428.925670156255,319.7814280607112,356804.311238709,298.12709749956286
2021-01-17,1030.9077155213824,10292.02274082819,319.521681935119,356998.2065032773,297.8215162386957
2021-01-18,1032.710310122421,10133.728362811846,319.2176207659384,356736.1476928241,297.5416795402402
2021-01-19,1033.0503831153433,10562.245384244685,320.0315741609696,357130.46040393086,298.3325369972829
2021-01-20,1022.7712131912674,9901.36599744874,318.76380300653216,356535.6748420675,297.05574917346
2021-01-21,1034.668760232321,10610.865810945254,320.12212510990827,356993.3965754904,298.43854296324554
2021-01-22,1016.6800792582142,10579.206574447262,320.0632033817917,357037.38118752086,298.2956513337309
2021-01-23,1031.4121491791582,10451.257950352943,319.8235207519783,357216.3013882043,298.1121174437083
2021-01-24,1032.3697501724118,9809.586331755798,318.5820248389284,356334.691111833,296.9295197535198
2021-01-25,1019.1681427941312,10124.621246029794,319.2000033434709,356738.36598465056,297.4627961683404
2021-01-26,1042.4895433474323,10321.386579689086,319.5776431222508,356931.5225328293,297.9327266851981
2021-01-27,1010.5431886088636,10515.359692034555,319.94391408472177,357216.35620817647,298.1371236355328
2021-01-28,1002.9313043626926,10615.557448025158,320.1308439663636,357076.8148005909,298.2966904883069
2021-01-29,1023.1059352743968,10751.818343081386,320.38263554521893,357359.7886233357,298.6246097078296
2021-01-30,1016.6088678768576,10576.706620880828,320.0585442087891,357601.72149967746,298.2562821799771
2021-01-31,1012.7814460634926,11398.454616860472,321.5414122217478,358010.86810243165,299.6954520832396
2021-02-01,999.3651512230103,10493.581202203786,319.90308151517604,357379.20611153805,298.0336891996321
2021-02-02,1017.8351295049558,10866.070521180483,320.5916535813665,357560.76302868075,298.79713305701137
2021-02-03,1020.109609601118,10478.23282999916,319.87426102220354,357244.71911722264,298.10996354602105
2021-02-04,1019.2241372894136,10048.83115585691,319.0528589193468,356853.8822850245,297.30900462946084
2021-02-05,1005.0583598075366,10378.772865347131,319.6866151413042,357144.3827786428,297.8587300774693
2021-02-06,1001.8268272215046,11011.92474871324,320.8557595389441,357626.93172503484,298.9822152008499
2021-02-07,1028.6205329259492,10929.075140560435,320.7061106858166,357738.64654901327,298.94977454938515
2021-02-08,1015.0040788743304,10115.260907745453,319.1818818665844,356909.23686304514,297.4151470038118
2021-02-09,1012.7970378326816,10451.659060308546,319.8242760715639,357240.5149955092,298.0265887243795
2021-02-10,1007.3633660846032,10690.549361553469,320.26976009595086,357487.9460199974,298.4312688802666
2021-02-11,1001.9249420429962,10882.448022645776,320.6214604307266,357722.3379777332,298.74271637440773
2021-02-12,1006.8148450075516,10286.189167565792,319.5105480545388,357012.884125621,297.6990984002187
2021-02-13,990.7340957029468,10859.17382107467,320.57909012389985,357634.89171493705,298.65200271556967
2021-02-14,984.5115323295428,11094.18273958518,321.0033861267153,357930.29719424713,299.027470381439
2021-02-15,1000.0672009436262,10748.42426842729,320.37639714123384,357733.2783452102,298.4883286947006
2021-02-16,985.8460743523002,11003.54992464019,320.8406763565204,357844.693439044,298.8766832569591
2021-02-17,981.3343075643518,10836.288922451997,320.5373524035593,358071.1278582282,298.5374410324483
2021-02-18,1008.9084940624258,10519.000334743974,319.9507328471726,357417.8614706519,298.12400853948486
2021-02-19,992.3552261825292,10399.230113827574,319.72533663360787,357586.11636787705,297.80976379070773
2021-02-20,993.9341279648794,11423.067882014737,321.5843932821319,358296.2624945977,299.6316104691452
2021-02-21,966.9660187387368,10974.407611171677,320.78811365124113,358092.890597022,298.7144387192371
2021-02-22,981.7484629805753,10801.535681467323,320.4738240319481,357851.20812926826,298.48951386455667
2021-02-23,1004.0173505310438,10851.956159226762,320.5659346401026,357782.4471060995,298.693472184235
2021-02-24,984.4679586802604,10865.063661319164,320.5898198499784,357764.61663661303,298.6241518498573
2021-02-25,988.5461230036432,11668.120227134565,322.0080367496661,358556.1412146779,300.01288473273297
2021-02-26,983.0046686935405,11051.823476410538,320.92748274715507,358200.8416192253,298.92758719048885
2021-02-27,979.4597668980743,11115.875210265813,321.0421604521162,358115.23246384464,299.0298721461912
2021-02-28,983.9021745838796,10864.051814560597,320.58797688919395,357850.72713267204,298.61424143824826
2021-03-01,980.414286560805,11129.747046999268,321.06692169282485,357959.8153780379,299.0689050348096
2021-03-02,986.3857971310158,11440.660771385694,321.6150662744316,358405.305315748,299.6188170329294
2021-03-03,983.953811739995,10837.455024108349,320.5394809821557,357943.0931531041,298.5603675127905
2021-03-04,972.0156345624408,10531.668780669312,319.97444448753504,357616.10687870864,297.9563675451824
2021-03-05,984.5473080673876,10841.889720634,320.54757419178725,357920.82360028353,298.5727428697791
2021-03-06,972.8993835052984,11471.44000225187,321.66863224406563,358428.0660891279,299.6038334773444
2021-03-07,988.2314413145,10776.749567524852,320.4284080433596,357977.750048156,298.46823278802447
2021-03-08,985.898520046692,11361.060380542389,321.47595958814594,358279.3813215505,299.48513015773017
2021-03-09,980.1099349219828,11546.000179160146,321.79788182721734,358490.2343370694,299.7653007111172
2021-03-10,965.9199109047344,11276.210175186136,321.32675412973015,358406.3082013297,299.22804584028705
2021-03-11,975.4964423153484,11978.532725809418,322.53384633087614,359062.0593139088,300.4426322465572
2021-03-12,973.0142541837774,11351.966978538425,321.4600150888444,358588.0201311505,299.38608718139227
2021-03-13,969.289598485004,10998.997855407675,320.8324738756893,358160.2613282836,298.76644654600267
2021-03-14,951.8899882762256,11251.471740099632,321.28307116996154,358408.3846877345,299.11139388844754
2021-03-15,960.925436207552,11673.904642335476,322.0179441765941,358782.0533377725,299.8699193026808
2021-03-16,963.2131038847036,11270.55456843221,321.31677475868605,358543.42388637806,299.19572436659973
2021-03-17,987.4332668358226,11332.472178124634,321.4257956448869,358462.03625372273,299.4313230944875
2021-03-18,976.0972191606804,11369.827730792593,321.4913220130062,358413.1184956205,299.4436372836578
2021-03-19,957.07699864015,11390.80480854526,321.52803746876015,358385.70904070965,299.3847877615479
2021-03-20,971.0931213762278,11162.42378333464,321.1251451158849,358686.48066641,299.0356663488048
2021-03-21,964.1218976357724,11401.149385693174,321.5461218597095,358372.2083522476,299.44015212542433
2021-03-22,966.7916962411842,11445.468986536336,321.6234422945788,358314.48556615424,299.534657150216
2021-03-23,941.3271471493214,12155.8184259987,322.8289285522743,359377.72737331,300.5399372261566
2021-03-24,952.0630297290144,11425.980116810597,321.5894735282542,358856.40044759336,299.3908054335002
2021-03-25,967.7389142237372,11590.082642101448,321.8739618788121,358644.0170781662,299.76955602430127
2021-03-26,962.950233373248,11958.19066735893,322.499748926361,359110.2951587185,300.34166945876683
2021-03-27,940.7701128533088,12259.60817015598,322.99997198671747,359592.88009779115,300.6945412405107
2021-03-28,927.0109555258424,11412.909162443002,321.5666632021724,358784.08970847353,299.2367808960558
2021-03-29,938.439206517264,11884.199493380904,322.3753035923164,359082.6844600102,300.08920497173943
2021-03-30,943.7778752744284,11395.598587812452,321.5364197064034,358816.7068598363,299.29615523730627
2021-03-31,960.0662309319208,11583.356024289473,321.86236876957264,358573.37157336896,299.72286342131974
2021-04-01,962.1809262849264,11434.22360279522,321.60384784815244,359204.93862946803,299.4364863717764
2021-04-02,953.6775084875874,12003.148987700068,322.57504180017,359276.8000365504,300.3583093825611
2021-04-03,962.1171791361572,12058.086065600295,322.6667186261104,359208.3561102862,300.4981984501885
2021-04-04,943.5548194683316,11564.799767329556,321.83035767550007,358971.2513115232,299.5791321431189
2021-04-05,937.098360859206,11744.76946697574,322.13897928212987,359149.48584020307,299.84157714600155
2021-04-06,953.2062976794484,12341.276713331152,323.1336892624624,359557.4620888024,300.89684190877284
2021-04-07,950.1268462326768,11606.237613995974,321.9017808819027,359104.37217476097,299.6773420051548
2021-04-08,946.383768710452,11590.18066856172,321.8741307815651,359125.0143749152,299.6285118095381
2021-04-09,950.4932333620804,12316.61555770901,323.0933913128269,359694.8627497183,300.83371478670864
2021-04-10,938.549103626472,12159.780079470276,322.8354802289732,359887.4170971497,300.49980681922693
2021-04-11,938.0557904674708,12049.640855188183,322.6526489289247,359522.2284811331,300.337042764453
2021-04-12,935.0685838062006,12830.911817117278,323.9198280930765,360250.28585783934,301.54210105102544
2021-04-13,948.439737152597,12195.63446061887,322.8946921311143,359774.9820096405,300.6192362870769
2021-04-14,934.2635599427432,12335.661218808991,323.12451925096093,359603.3945029282,300.7828981853459
2021-04-15,945.0739311942364,11397.327383940194,321.5394418772098,359011.9953295276,299.29402845861784
2021-04-16,938.181526163112,12226.155552462133,322.9449788210327,359683.1628629091,300.6199196767935
2021-04-17,949.9180181766108,12114.7816168761,322.7609550149342,359820.5527324334,300.49061568354426
2021-04-18,929.2745790727704,12489.342600804872,323.3741969683493,359974.62600350584,300.981834186149
2021-04-19,948.5276324966142,12349.55786636932,323.1472057244193,360144.09861480026,300.8492498108172
2021-04-20,926.0109799379088,12460.048673157764,323.32680871460275,360010.00644993555,300.9140719268356
2021-04-21,947.7198773134496,12648.219536537792,323.6295616046526,359783.9670954946,301.3493667907366
2021-04-22,925.0660585219854,12176.910252913449,322.863788596293,359644.4274891856,300.4687455702944
2021-04-23,946.822929474224,12685.289623466037,323.6887488738779,360095.2983130737,301.3844592296323
2021-04-24,935.820445552288,11877.850684039458,322.36459462646155,359659.0283935713,300.0284573744667
2021-04-25,936.4217654613088,12656.201445498498,323.6423183220293,360132.36154752807,301.27944747416046
2021-04-26,945.3467838870796,12467.847116591029,323.3394334367588,360358.4996154178,301.0110816874133
2021-04-27,931.6390873157352,12559.0873987189,323.4866394753128,360248.5940289366,301.09030216209953
2021-04-28,939.6473778609233,12317.218622979472,323.09437758611193,359985.3323767422,300.75847364228133
2021-04-29,916.4643258945346,12655.33323192982,323.6409310741232,360252.01026067365,301.1589806694745
2021-04-30,917.6006744331528,12197.588676341597,322.897915138156,359943.41547288507,300.4420583241313
2021-05-01,942.3872882660372,12603.384400343832,323.55777740028543,360260.85490742506,301.21942501980857
2021-05-02,922.3225405799444,12131.289689819365,322.7883227619012,359845.34758867125,300.3653943626189
2021-05-03,935.2087529788718,13275.201600980095,324.6112178952877,360625.56896837486,302.2107032878241
2021-05-04,921.4679275818282,12752.29826462337,323.7953617840556,360415.28775254486,301.33161855231344
2021-05-05,919.8231877779716,13065.300969706956,324.28708862454005,360577.98268140695,301.8036857003979
2021-05-06,926.7180031848684,11994.513822059327,322.5605990557219,359790.6803314995,300.16585628403453
2021-05-07,932.6067835174944,12724.135828817993,323.7506130763132,360343.38691430376,301.35361755685267
2021-05-08,924.1951925104746,12430.42325589908,323.2787869648258,360221.63187539467,300.8427180454045
2021-05-09,931.23305594532,12293.211775173317,323.05508395172313,360388.64860748535,300.64800206536563
2021-05-10,943.697653661466,13035.544946445629,324.240778797377,360733.5824875801,301.87993347810624
2021-05-11,918.422113007315,12841.892436130043,323.9371612985035,360960.2755087224,301.4220894981593
2021-05-12,913.8060093053722,12763.597939308946,323.81329259606395,360606.2557911344,301.2939127793478
2021-05-13,921.7182770142156,12662.192123517452,323.6518881168569,360726.7643034289,301.170218617934
2021-05-14,927.5778221249686,12921.922319989755,324.06310841511174,360419.734954454,301.6333161015984
2021-05-15,929.4382245703916,12907.26239473943,324.0400874471019,360843.6107205403,301.5943129618416
2021-05-16,934.617064099654,12367.242703504808,323.1760448367786,360169.68670871697,300.8011737039756
2021-05-17,925.3587549304024,12940.589033170816,324.0923890041601,360663.4360961103,301.63499689365915
2021-05-18,922.417768309726,13009.595827157184,324.2003197262219,360582.8504047022,301.73134284917967
2021-05-19,933.4306772775476,13070.267928187848,324.2948099870167,360512.299500722,301.8916517950969
2021-05-20,896.6888707691611,13180.54267127433,324.4655928841276,360908.1248993367,301.82662253783354
2021-05-21,924.9017396462492,12532.796188762684,323.4443158225515,360404.9160941576,301.00072774192336
2021-05-22,934.2948019734762,12978.30850866302,324.151445444671,360783.5651834879,301.7362543574979
2021-05-23,928.9927528698444,12622.578160239,323.58853471335306,360631.7066967124,301.1536473764441
2021-05-24,910.9694959118202,12537.64714783396,323.4521306310086,360733.5480518565,300.90858670321256
2021-05-25,916.759575854043,13222.029409168885,324.52952675481515,360966.1137532753,302.0043631349077
2021-05-26,926.0649277007892,12443.098424336584,323.29934496092244,360363.8147741616,300.8649058259762
2021-05-27,935.9263043740018,12870.217338408136,323.981814354374,360704.4570662941,301.5805725735188
2021-05-28,903.3953929858104,13270.966855961204,324.60472212403454,361007.4798561119,301.9993069814716
2021-05-29,928.34874941663,13697.897322745435,325.25084205050587,361444.2830629659,302.76122749071624
2021-05-30,928.1791687651069,12605.466602675617,323.56111599596863,360684.9913008567,301.1183918927468
2021-05-31,914.0675955004712,12808.299525562645,323.88409389301614,360443.8482791296,301.3763266940538
2021-06-01,922.104412320453,13073.877068008367,324.3004189817427,361047.9731794562,301.80065830369523
2021-06-02,908.0478731474371,13193.023680220267,324.4848450730817,360910.2706921533,301.9128401385173
2021-06-03,906.9331793977452,13544.232337650292,325.0202969144981,361380.96086556936,302.4121639576754
2021-06-04,921.252526780153,12906.900034073538,324.03951813638525,361026.7352913011,301.5363567773214
2021-06-05,900.8493300758444,12946.541061638984,324.10171774010536,360980.2946209494,301.4831443103152
2021-06-06,932.5364432515202,12515.455775967268,323.4163595070443,360632.3425343444,301.00117101718683
2021-06-07,923.5997249772024,13062.02796405428,324.2819992138007,361012.1549642276,301.79292502455286
2021-06-08,897.5532881698284,12875.139660875871,323.9895656041152,361230.498263006,301.3357420027744
2021-06-09,907.1205632163484,13247.926775393516,324.56934928017137,360797.6034316057,301.99894479897733
2021-06-10,905.7783826486346,12836.882678172831,323.9292548357104,360827.91787392047,301.3493475746023
2021-06-11,917.7256426805264,14168.522349210674,325.94340706982746,361942.672579159,303.3624654723432
2021-06-12,909.783678987857,12696.711161757908,323.7069549844374,360829.022247498,301.1504491504249
2021-06-13,904.45949639797,13163.978904659562,324.4400188334072,361041.6455385353,301.83879168711644
2021-06-14,904.70018940512,13069.363910915255,324.2934048382956,361151.11529499775,301.6867988093886
2021-06-15,903.0260712678004,13307.365442658882,324.6604968839699,360877.0230881146,302.06105096806846
2021-06-16,912.6007204195992,12985.846031651914,324.1632291204935,361195.255191471,301.5999782537889
2021-06-17,898.1178067970835,13457.52365971916,324.8892166445182,361518.0869990164,302.2203985545911
2021-06-18,910.7744290853868,13064.3279835759,324.2855757788287,361315.4086270367,301.70419279487027
2021-06-19,899.6783068678515,13380.999206902032,324.7729299171718,361455.17010563385,302.11739908798944
2021-06-20,905.6800312811592,13536.953393276715,325.0093207783429,361278.6623335175,302.4002423440479
2021-06-21,903.2211736150788,14286.463696528028,326.1138783758487,362171.9603057898,303.4341195597593
2021-06-22,902.1857469153192,13204.372550903045,324.5023373779282,361485.1422698532,301.85990851456023
2021-06-23,908.2260767668424,13378.925384345042,324.76977061232594,361285.45911332,302.1752496629226
2021-06-24,910.5324432656216,12704.932296115496,323.7200509140342,360888.0261387845,301.16419957980395
2021-06-25,912.068892325032,13358.565948456057,324.7387323268688,361452.8350609387,302.1561072691909
2021-06-26,923.964037638088,13711.646065127154,325.2713613259491,361773.2138749866,302.7366295865628
2021-06-27,911.0964488169489,12593.468112047643,323.54187116850204,360910.0269908857,300.98799653592414
2021-06-28,897.5165030843921,13546.413476112646,325.0235849342277,361590.1838162769,302.3466089037181
2021-06-29,902.7845864640811,13342.166584056687,324.7137017563221,361821.5663241908,302.05367755520285
2021-06-30,882.335402087331,13480.284071748556,324.9236941388706,361664.77043938974,302.1496620860569
