,IPT St2 Efficiency,IPT St2 Power
2020-01-02,83.48265882380463,38045.11791034088
2020-01-03,83.33332784822926,37962.184887708085
2020-01-04,83.5779996067192,38119.68295487348
2020-01-05,83.55983794053924,38092.87155101826
2020-01-06,83.38155488522403,38003.23949111946
2020-01-07,83.49607051638219,38042.59009512351
2020-01-08,83.33539997662027,37966.25055479046
2020-01-09,83.56222600408951,38079.6266542992
2020-01-10,83.56697848341997,38070.74475060901
2020-01-11,83.67654785916736,38167.29707035428
2020-01-12,83.5894078339378,38108.24543785406
2020-01-13,83.50753140458906,38039.17464467528
2020-01-14,83.70414350764406,38169.14218388076
2020-01-15,83.35487636749173,37947.015633982286
2020-01-16,83.41689792315665,38016.60509428044
2020-01-17,83.47595360898116,38039.74198384396
2020-01-18,83.49322101844184,38041.47373312495
2020-01-19,83.4172028646948,38024.17591351765
2020-01-20,83.39698678326445,38022.68546957685
2020-01-21,83.35341416716285,37978.267602571534
2020-01-22,83.46578566755797,38033.04770075063
2020-01-23,83.43216246264909,38021.13194854297
2020-01-24,83.45822612334652,38046.7301740203
2020-01-25,83.48555859189116,38046.59692451934
2020-01-26,83.49525842998872,38046.251154773
2020-01-27,83.38067174850246,38009.56366338331
2020-01-28,83.29751586683504,37943.86126813873
2020-01-29,83.44514177536863,38045.71617217289
2020-01-30,83.35573638093034,37997.95767794958
2020-01-31,83.48161537056053,38040.10302039768
2020-02-01,83.54740902367655,38065.24636273218
2020-02-02,83.39823568868762,38004.843401738246
2020-02-03,83.40567175129094,38011.64364923361
2020-02-04,83.48870111804102,38057.506507453465
2020-02-05,83.46389752262948,38044.51985686274
2020-02-06,83.57297866773904,38072.05651447205
2020-02-07,83.52489292041923,38071.12055701323
2020-02-08,83.57077473342012,38083.29035406312
2020-02-09,83.27419888017585,37923.0952813058
2020-02-10,83.2129946748838,37958.68006388348
2020-02-11,83.28471300999912,37937.002990016925
2020-02-12,83.47777306192229,38030.39984131856
2020-02-13,83.41283445336074,37996.86475552037
2020-02-14,83.59968294926465,38108.22534869768
2020-02-15,83.24185148910063,37948.78649451624
2020-02-16,83.28371667424781,37973.04402419748
2020-02-17,83.45387788247079,38041.72041514182
2020-02-18,83.51949569084279,38086.81885718866
2020-02-19,83.29161128803652,37932.05558152907
2020-02-20,83.53903027202267,38095.3622232301
2020-02-21,83.42989416759478,38029.46141515264
2020-02-22,83.2931844624165,37959.93846695226
2020-02-23,83.34146172751329,37984.18269583526
2020-02-24,83.45063493836743,38037.14222440219
2020-02-25,83.41772298867691,38018.87768390792
2020-02-26,83.27981434846185,37933.761117303926
2020-02-27,83.41425588693099,38009.51278469439
2020-02-28,83.18212410642869,37915.79171339202
2020-02-29,83.3532766906804,37997.83130634708
2020-03-01,83.26859185235645,37946.43752655151
2020-03-02,83.42578041700378,38041.09321044849
2020-03-03,83.51097264446148,38085.39213486171
2020-03-04,83.33972979087473,37979.80220771372
2020-03-05,83.35570204706713,38021.55661152219
2020-03-06,83.56216301388856,38106.529130451054
2020-03-07,83.27267563203891,37927.29923413553
2020-03-08,83.4549257316724,38025.33803511328
2020-03-09,83.39173044795078,38056.91394942272
2020-03-10,83.30866440909014,38008.39714782008
2020-03-11,83.29545270144601,37950.53988382668
2020-03-12,83.43120451283849,38067.08709716659
2020-03-13,83.40398676379051,38011.35794850745
2020-03-14,83.58292500999337,38103.75786974582
2020-03-15,83.52709665983458,38068.13489937045
2020-03-16,83.39382420519098,38011.09296812008
2020-03-17,83.35029277468604,37963.76243170535
2020-03-18,83.34204075281541,38004.26201212162
2020-03-19,83.33076326761741,37966.4805995255
2020-03-20,83.52362716516731,38100.16373057309
2020-03-21,83.31004870306312,37980.2918878757
2020-03-22,83.5446150951439,38127.85912356783
2020-03-23,83.53944942507631,38109.56809636689
2020-03-24,83.53250880515046,38091.32100384069
2020-03-25,83.46579625525064,38025.166045904814
2020-03-26,83.39112094817352,38009.16833738757
2020-03-27,83.54300575916155,38105.17344409317
2020-03-28,83.50779324906891,38076.77493090681
2020-03-29,83.37298407926389,38038.264586363744
2020-03-30,83.45532028678451,38030.99939932111
2020-03-31,83.40911812345378,38050.25872649577
2020-04-01,83.36014140539262,37985.93999705217
2020-04-02,83.44852726706917,38046.17946846696
2020-04-03,83.42684337494126,38029.17245220664
2020-04-04,83.44187207361189,38010.3898511008
2020-04-05,83.33201227456294,38004.422877215206
2020-04-06,83.26572195984812,37981.15118865438
2020-04-07,83.46569542188917,38031.877518465575
2020-04-08,83.22236005938463,37929.8997194806
2020-04-09,83.30245012028485,37979.99154932419
2020-04-10,83.36573369256081,37997.53394582733
2020-04-11,83.28169759507404,37961.50470856676
2020-04-12,83.347657456867,38029.59219446815
2020-04-13,83.25963669418061,37964.84168035735
2020-04-14,83.39707667823251,38047.446022536045
2020-04-15,83.3937440282109,38043.20560459246
2020-04-16,83.41042880739485,38062.109943402
2020-04-17,83.28956676597117,38004.59429076653
2020-04-18,83.30609436366419,37986.13381706339
2020-04-19,83.33801095914937,38003.4733447376
2020-04-20,83.33715043011337,38028.19870483386
2020-04-21,83.27420586643306,37973.34325545991
2020-04-22,83.46881281025283,38062.66669640668
2020-04-23,83.17394616381053,37936.657554261255
2020-04-24,83.51473500607939,38082.17612411005
2020-04-25,83.3977699453337,38025.44512688898
2020-04-26,83.30523356996736,37976.19383150599
2020-04-27,83.33210590905058,38023.297282405365
2020-04-28,83.21798170964644,37987.3883600383
2020-04-29,83.32208388928998,38000.4787108747
2020-04-30,83.34841663079874,38003.86672412039
2020-05-01,83.30560591461794,37949.24355859764
2020-05-02,83.25393642264102,37994.1361572971
2020-05-03,83.36311370563837,38014.59906170894
2020-05-04,83.1309276553311,37895.570679588665
2020-05-05,83.40193570930133,38028.43261760425
2020-05-06,83.15395782637259,37931.15221174412
2020-05-07,83.38584674561531,38058.764849796025
2020-05-08,83.4712361079252,38075.9303162544
2020-05-09,83.16883579444857,37931.23139114575
2020-05-10,83.27130725829548,38005.59390591659
2020-05-11,83.27271123929721,37976.79519788703
2020-05-12,83.25415235018285,37958.552165312765
2020-05-13,83.19526168524081,37934.67532813649
2020-05-14,83.24408279661951,37962.31211112429
2020-05-15,83.41904118312566,38052.862143022096
2020-05-16,83.23719525931354,37976.72820269446
2020-05-17,83.20520672995558,37936.51700852545
2020-05-18,83.18514748569822,37938.58049300248
2020-05-19,83.30334797257893,37986.66727302381
2020-05-20,83.39281237845671,38051.699841374015
2020-05-21,83.38249719225382,37998.32403091997
2020-05-22,83.21791446541026,37976.53114282331
2020-05-23,83.1689392053569,37958.80693783109
2020-05-24,83.22177522643558,37973.009859885766
2020-05-25,83.16266966995536,37949.72511852838
2020-05-26,83.21690338117675,37957.03720755234
2020-05-27,83.19719857661539,37959.68211215712
2020-05-28,83.31672251393161,37996.68535549964
2020-05-29,83.26173206224419,37992.57022555418
2020-05-30,83.2637637115241,37984.69317729223
2020-05-31,83.20944322735451,37941.97576283237
2020-06-01,83.06977046396713,37869.10819975087
2020-06-02,83.35779172052935,38042.59300148931
2020-06-03,83.26461680719075,38000.28822060173
2020-06-04,83.1860851847853,37960.270628551065
2020-06-05,83.34295745683352,38033.60657043016
2020-06-06,83.24509401779434,37969.0863897862
2020-06-07,83.1437452964776,37903.321770777125
2020-06-08,83.19991894000577,37959.4026167579
2020-06-09,83.29096519029159,37977.40289723392
2020-06-10,83.43142934552282,38078.47265640555
2020-06-11,83.29007184053079,38003.10871004
2020-06-12,83.27828296680251,37969.99992648616
2020-06-13,83.29988806110066,37977.07660694857
2020-06-14,83.29707767802176,38002.53753158149
2020-06-15,83.16964421733898,37924.06621132678
2020-06-16,82.9422923135318,37819.20293059821
2020-06-17,83.32119453665881,38002.78854610206
2020-06-18,83.1015156007649,37900.614434445335
2020-06-19,83.24551067258714,37955.79210311363
2020-06-20,83.25368397388742,37977.96262869573
2020-06-21,83.16258495087426,37975.99401577432
2020-06-22,83.28703154345187,37989.67024913538
2020-06-23,83.2739147736212,37996.23915045192
2020-06-24,83.08713808635346,37893.29166303565
2020-06-25,83.22602485162044,37983.20492739359
2020-06-26,83.19804430704478,37959.07456040049
2020-06-27,83.23234319419933,37963.62089955036
2020-06-28,83.33171489146248,38032.67768402657
2020-06-29,83.22065953754263,37953.78848289974
2020-06-30,83.32521521863693,38023.71568123863
2020-07-01,83.04392893192559,37839.17694203487
2020-07-02,83.22673702769333,37972.82540739328
2020-07-03,83.29368476852576,38022.63954792312
2020-07-04,83.17046481632427,37959.39150140075
2020-07-05,83.17397143459719,37918.12985430912
2020-07-06,83.19185487344434,37959.99915808538
2020-07-07,83.04034484865778,37885.07561732116
2020-07-08,83.17270510133281,37945.30423739297
2020-07-09,83.05443844636046,37887.36331725722
2020-07-10,83.1416667212984,37914.89030005269
2020-07-11,83.31777373174185,37994.08165811771
2020-07-12,83.18637935399168,37963.90736329233
2020-07-13,83.27860875802314,38016.73818214867
2020-07-14,82.90068407541149,37828.936471212684
2020-07-15,83.1478654446312,37945.492459174
2020-07-16,83.21360213000274,37985.58620762055
2020-07-17,83.19916068347906,37982.39889593217
2020-07-18,83.04709258311739,37881.82809484798
2020-07-19,83.1363780691499,37944.69141798394
2020-07-20,83.26007489842128,37977.61229698233
2020-07-21,83.25759972392001,37974.87527609646
2020-07-22,83.22929309971364,38016.38588009535
2020-07-23,83.15800923269254,37943.62563173722
2020-07-24,83.18206207619644,37961.95912031237
2020-07-25,83.38656883739236,38086.01361101177
2020-07-26,83.15732073225045,37926.02129774071
2020-07-27,83.24094445633446,37983.5568342199
2020-07-28,83.01715939870263,37873.78460553572
2020-07-29,83.21503788320912,37970.965434729
2020-07-30,83.1143187368247,37925.07829527619
2020-07-31,83.0541845169404,37872.45361721871
2020-08-01,82.97886061878557,37875.4812377939
2020-08-02,83.15103838804072,37929.43936369572
2020-08-03,83.21932880343178,37946.04733968573
2020-08-04,83.1750145710663,37947.69933519764
2020-08-05,83.09727550834656,37948.52462346453
2020-08-06,83.07703780949497,37939.546803996265
2020-08-07,83.1224299212518,37960.08721096618
2020-08-08,83.12367607736093,37910.40690645709
2020-08-09,83.21218248825987,37949.21052491726
2020-08-10,83.0109905073413,37877.26849421216
2020-08-11,83.17752396722493,37936.8357705077
2020-08-12,82.99935444174243,37866.46048350454
2020-08-13,83.14218335752074,37923.58323749129
2020-08-14,83.30518719828396,38041.22641733968
2020-08-15,83.13704394705061,37946.01206478427
2020-08-16,83.03909523193529,37897.6171310869
2020-08-17,83.09509675435089,37901.29626015341
2020-08-18,83.20939108336995,38008.40289187398
2020-08-19,83.12630479156824,37944.24825216322
2020-08-20,82.98681856593846,37883.02557247501
2020-08-21,83.27442324489103,38025.340038566064
2020-08-22,83.27026239308219,38025.96291747654
2020-08-23,83.10221809518079,37951.31662088291
2020-08-24,83.13555146499252,37950.44879276748
2020-08-25,83.16114682250091,37969.16203563001
2020-08-26,83.0815121368495,37898.90130527618
2020-08-27,83.08410047492522,37944.80259260952
2020-08-28,83.14480407288636,37959.90057953935
2020-08-29,83.10364936662889,37929.78630045045
2020-08-30,82.95570197024863,37868.346254504926
2020-08-31,83.19414457728655,37968.42937612005
2020-09-01,83.14097305305438,37928.12943927368
2020-09-02,83.16521791621705,37980.05949717186
2020-09-03,83.03869980783126,37882.77568661478
2020-09-04,83.08395256298326,37909.76676384217
2020-09-05,83.12802029656734,37928.08003362632
2020-09-06,82.97720310006453,37847.03655950599
2020-09-07,83.0728124768831,37911.20043890899
2020-09-08,83.19432430165803,37991.811553932974
2020-09-09,82.91353832843828,37863.72120474423
2020-09-10,83.13070737124636,37974.292093313925
2020-09-11,83.12901001558653,37936.71381284918
2020-09-12,83.0227083659865,37898.48339851825
2020-09-13,83.21663331701585,37977.17457193096
2020-09-14,83.06860765020413,37939.688800871525
2020-09-15,83.01685468888276,37899.25303836256
2020-09-16,83.1465422152971,37949.83574646755
2020-09-17,82.98202270295297,37857.63973639181
2020-09-18,83.2358707354862,38021.01615724215
2020-09-19,83.06344453024725,37922.495244203725
2020-09-20,83.24750142136267,37988.7987941058
2020-09-21,83.02621604624,37917.36969655964
2020-09-22,82.99054617488903,37891.39881074244
2020-09-23,82.87532166585014,37821.962892826086
2020-09-24,83.0761100733093,37944.42979025066
2020-09-25,83.12272402902369,37950.77759667815
2020-09-26,82.89863999844933,37847.437798609964
2020-09-27,83.05541532015614,37943.40384090703
2020-09-28,83.03403306356164,37930.85711831493
2020-09-29,82.98673900917085,37904.56305083952
2020-09-30,83.0371922670852,37934.3293690828
2020-10-01,83.11509054511939,37954.1192403419
2020-10-02,82.91138546867977,37828.11299917483
2020-10-03,83.10516798051654,37968.41670458389
2020-10-04,83.04386284388919,37917.70330749926
2020-10-05,82.79979856289629,37791.03327700316
2020-10-06,83.00528091418147,37907.90404405857
2020-10-07,83.0460274322423,37934.528235649545
2020-10-08,83.04058960626699,37927.90596231207
2020-10-09,83.01712183608001,37916.3323238182
2020-10-10,83.01365199247431,37909.06139962043
2020-10-11,83.04077701832614,37958.35789780539
2020-10-12,83.14822345254477,37953.48421582594
2020-10-13,83.09700791439157,37952.118938290725
2020-10-14,82.93641577154546,37860.12583527154
2020-10-15,83.18908720756613,37983.91527627152
2020-10-16,82.99537349076628,37906.23463286106
2020-10-17,83.06236113073284,37933.67646032466
2020-10-18,83.1365375136743,37979.44378978394
2020-10-19,82.93215952247022,37899.07046926906
2020-10-20,83.15312331608051,37973.14983845915
2020-10-21,83.09431868270363,37952.39080702942
2020-10-22,83.28493100033123,38089.83908967554
2020-10-23,83.00867440114712,37927.69400764509
2020-10-24,83.00199108653982,37925.279739353646
2020-10-25,82.9779562504659,37885.61559985663
2020-10-26,83.03406398350887,37946.60913272229
2020-10-27,83.02982133624417,37915.53624483389
2020-10-28,82.94953400575615,37890.9445963012
2020-10-29,83.17483446577573,38031.39346696638
2020-10-30,83.03520596396692,37947.602035046526
2020-10-31,82.83700078974435,37859.49305259835
2020-11-01,82.86381084879964,37873.80881106528
2020-11-02,83.14954190830004,38006.05904040029
2020-11-03,83.05415667562093,38006.09037148178
2020-11-04,83.08866335248347,37978.40449965275
2020-11-05,83.00786239425923,37925.08914218612
2020-11-06,82.9871322462336,37917.91087585067
2020-11-07,83.03737937637827,37935.509555308105
2020-11-08,82.81366466371438,37811.65875389518
2020-11-09,82.92050025272506,37882.44676873859
2020-11-10,82.76243790799096,37833.71394488213
2020-11-11,82.80352653562284,37824.932747804494
2020-11-12,82.94166860438746,37905.82792371655
2020-11-13,82.95974692771927,37898.93121456821
2020-11-14,82.86458816086306,37877.16641218284
2020-11-15,82.8726267765947,37902.88960646979
2020-11-16,82.77006698451831,37823.82432602697
2020-11-17,82.81004009001956,37848.5233651403
2020-11-18,82.73635701481399,37793.61493087199
2020-11-19,82.89259252015088,37886.67011952477
2020-11-20,82.80344377614689,37852.290317538376
2020-11-21,82.80539734015898,37838.02980368448
2020-11-22,82.88223584281371,37881.448911522726
2020-11-23,82.8716397609996,37872.65658201706
2020-11-24,82.70970410656852,37798.760566681725
2020-11-25,82.84595641871502,37853.75770234498
2020-11-26,82.78367635487949,37833.5036118849
2020-11-27,82.80228778454186,37868.83934483669
2020-11-28,82.87482642351111,37889.56828423849
2020-11-29,82.85554640304213,37829.93875143426
2020-11-30,82.81032756315732,37847.58071695361
2020-12-01,82.7069299455727,37810.83768935806
2020-12-02,82.73577161588256,37827.33855937577
2020-12-03,82.58641986071981,37756.775735808405
2020-12-04,82.84977207626423,37876.34187123353
2020-12-05,82.50151438106829,37720.44096796437
2020-12-06,82.62024211577275,37753.69552310065
2020-12-07,82.80795659691381,37836.49559591823
2020-12-08,82.81838479535674,37885.40922524091
2020-12-09,82.72900729965295,37825.38611791853
2020-12-10,82.89369819442125,37936.12334071072
2020-12-11,82.70174425187311,37819.81694027428
2020-12-12,82.64778218815731,37796.28191490616
2020-12-13,82.68233562674618,37799.79016654906
2020-12-14,82.52478947084273,37702.0688747614
2020-12-15,82.58002047628638,37758.86385966265
2020-12-16,82.65643092604711,37782.0510694001
2020-12-17,82.55664000904419,37724.76527084874
2020-12-18,82.5119973921281,37717.37969379616
2020-12-19,82.63602717957988,37794.1882518248
2020-12-20,82.60935565022254,37763.971478273335
2020-12-21,82.66146587336007,37811.73514545014
2020-12-22,82.49244631857584,37709.67537447119
2020-12-23,82.57002710359588,37758.82426173367
2020-12-24,82.62498175257036,37767.63113601728
2020-12-25,82.56346016420854,37737.2616868575
2020-12-26,82.43146944533453,37690.70036320434
2020-12-27,82.56332191897167,37740.60810187161
2020-12-28,82.3413481141449,37645.10872520584
2020-12-29,82.51995888210715,37738.665696345255
2020-12-30,82.43549264870572,37676.71145532056
2020-12-31,82.49826750671113,37716.73232999652
2021-01-01,82.44053052130683,37712.91199629596
2021-01-02,82.38586510345414,37677.52837844448
2021-01-03,82.56996710283059,37786.01267046165
2021-01-04,82.3411135805943,37648.54593562531
2021-01-05,82.5413763075284,37766.21457979134
2021-01-06,82.38750667553695,37642.653137437934
2021-01-07,82.56138386737126,37725.08938824876
2021-01-08,82.25950427282272,37604.87174532218
2021-01-09,82.39932209239566,37677.53038761588
2021-01-10,82.18492570926468,37571.59071884463
2021-01-11,82.39131476847324,37683.008845147
2021-01-12,82.3901280501374,37688.64960574015
2021-01-13,82.49975052374035,37750.2010330252
2021-01-14,82.2722372438898,37626.56232451414
2021-01-15,82.4964363948121,37742.78544829287
2021-01-16,82.3723608953148,37657.648013007616
2021-01-17,82.37730787037673,37654.0994230216
2021-01-18,82.43207959841924,37727.62014454816
2021-01-19,82.64628589455147,37820.6732034469
2021-01-20,82.37897274170167,37708.59927025513
2021-01-21,82.32364172617899,37657.616728463
2021-01-22,82.49835109498079,37735.41289826748
2021-01-23,82.24505436339219,37630.15401265571
2021-01-24,82.29285977818124,37635.17379974434
2021-01-25,82.13983006305975,37568.12465059566
2021-01-26,82.29710891690524,37631.76886232653
2021-01-27,82.16176400696685,37608.8254369326
2021-01-28,82.23585847520707,37593.3604475076
2021-01-29,82.4141460661968,37703.241343899776
2021-01-30,82.19387933108239,37599.94265586531
2021-01-31,82.31656764511243,37653.80785303868
2021-02-01,82.22410022488361,37619.077039005824
2021-02-02,82.34493883378639,37649.52727943525
2021-02-03,82.21608415087162,37594.73182795994
2021-02-04,82.13404381706192,37567.59678721859
2021-02-05,82.05502395900709,37542.11886940349
2021-02-06,82.1678563636072,37592.295877998265
2021-02-07,82.22357146001715,37589.586326074575
2021-02-08,82.30880975476406,37648.65707113914
2021-02-09,82.15217995549392,37580.79172559431
2021-02-10,82.16980977561231,37585.59122772319
2021-02-11,82.3301036081907,37681.01198521025
2021-02-12,82.21635020640775,37610.9474374572
2021-02-13,82.15918729908243,37570.79121005991
2021-02-14,81.93858090892876,37464.29884518779
2021-02-15,82.06596009385417,37528.18735701932
2021-02-16,82.05129674356796,37530.34112693775
2021-02-17,81.9978465628873,37507.74818806042
2021-02-18,81.90377833203038,37435.909149479245
2021-02-19,82.01097839466867,37514.50324019963
2021-02-20,82.12042447943053,37586.6064734835
2021-02-21,81.86977634647748,37466.48228881424
2021-02-22,82.00707688975064,37545.39895752245
2021-02-23,81.98711186087915,37529.71408584382
2021-02-24,82.10044339447332,37560.18464840697
2021-02-25,82.05365608505629,37578.55111885473
2021-02-26,82.04471518209787,37549.11539636584
2021-02-27,81.96677777560902,37480.16266374395
2021-02-28,81.96201850089474,37525.32016113165
2021-03-01,82.09303038656229,37562.61969287059
2021-03-02,81.82012398312611,37389.378393295214
2021-03-03,81.99235476539346,37515.36876750916
2021-03-04,82.07787423499309,37577.16142639848
2021-03-05,81.96490510929335,37521.66235582825
2021-03-06,82.18073180457218,37630.45261517492
2021-03-07,81.90030407179157,37484.65548677183
2021-03-08,82.03047456066486,37538.36219307342
2021-03-09,81.86743659613497,37450.36888420295
2021-03-10,82.0883368880452,37590.18568107574
2021-03-11,81.80581763230465,37417.17940050509
2021-03-12,81.8644311522978,37450.29488925403
2021-03-13,81.94288845947865,37515.91617537192
2021-03-14,81.82350710314908,37460.16402076107
2021-03-15,81.96220812478013,37515.461412656776
2021-03-16,81.69294245502101,37397.7755491368
2021-03-17,81.79547790800166,37428.22152265063
2021-03-18,81.93296280464762,37464.937363697696
2021-03-19,82.02867300858718,37538.48094689374
2021-03-20,81.80611882261138,37436.19869656818
2021-03-21,81.76764545897989,37417.27452291329
2021-03-22,81.98279611649625,37541.72732426383
2021-03-23,81.77705304115993,37436.08647742174
2021-03-24,81.76818603929814,37446.74890879552
2021-03-25,81.85463112338721,37450.01521622988
2021-03-26,81.83004450957951,37474.56034148708
2021-03-27,81.82322088302354,37466.24080504747
2021-03-28,81.87280365013736,37444.28487734711
2021-03-29,81.86170991788492,37479.60166661751
2021-03-30,81.89099910602674,37484.07953801988
2021-03-31,81.68718608432748,37382.0923528551
2021-04-01,81.55929246739524,37335.614155053525
2021-04-02,81.6934978797225,37363.46247351883
2021-04-03,81.6275069452965,37344.01946618528
2021-04-04,81.68989198907887,37410.135250016654
2021-04-05,81.60875905999039,37343.38961256344
2021-04-06,81.72990714276577,37400.60518295043
2021-04-07,81.70125974908838,37378.37483000259
2021-04-08,81.6863113010797,37403.69406334583
2021-04-09,81.51045780314138,37295.17605586562
2021-04-10,81.53802490451994,37351.27913521316
2021-04-11,81.55746665955364,37306.57091461072
2021-04-12,81.64009592867514,37376.253564782935
2021-04-13,81.73318442107947,37397.06821234001
2021-04-14,81.73874182607531,37426.281221235375
2021-04-15,81.59581388148746,37326.594674708096
2021-04-16,81.56465050358868,37316.92788388683
2021-04-17,81.72003021941246,37419.42171480748
2021-04-18,81.69370872864157,37403.91845571837
2021-04-19,81.36403605413709,37235.36349717213
2021-04-20,81.4683082155215,37311.99370653264
2021-04-21,81.65966212610329,37383.96332722085
2021-04-22,81.65689938624045,37382.88530506672
2021-04-23,81.67575336117474,37372.28504143083
2021-04-24,81.43858624749271,37275.83525131594
2021-04-25,81.5640420217133,37343.65949711831
2021-04-26,81.64523147370433,37396.263415378126
2021-04-27,81.49710721914902,37338.176713329296
2021-04-28,81.48286920773586,37307.97031701893
2021-04-29,81.42958276227797,37260.30173919884
2021-04-30,81.61840524136291,37374.98703928604
2021-05-01,81.41971601515601,37286.88305099889
2021-05-02,81.40464374101104,37244.7727137718
2021-05-03,81.57326440890489,37340.93771235812
2021-05-04,81.52210462299428,37303.38422771242
2021-05-05,81.55126133720829,37332.73496527287
2021-05-06,81.41808418431269,37280.40519465032
2021-05-07,81.39066177457113,37258.8146775486
2021-05-08,81.47247590170443,37315.33332206726
2021-05-09,81.41813023950314,37314.73418432228
2021-05-10,81.1905490552568,37180.33072616012
2021-05-11,81.37627684133244,37293.085996490576
2021-05-12,81.25459118143546,37184.438072673816
2021-05-13,81.38863360650701,37286.2080746986
2021-05-14,81.43684850459759,37299.6533456547
2021-05-15,81.21519122329943,37197.86831762013
2021-05-16,81.47206716432659,37291.80227122813
2021-05-17,81.25266324762181,37214.815099419735
2021-05-18,81.47645412514031,37309.29560356972
2021-05-19,81.43185705259802,37315.77257143174
2021-05-20,81.49888588343299,37347.7815360267
2021-05-21,81.3181577665781,37242.9119710473
2021-05-22,81.16515726574508,37183.04907858093
2021-05-23,81.30215932318966,37240.684285021394
2021-05-24,81.19229946998749,37220.674818210784
2021-05-25,81.29704257259283,37217.18714870006
2021-05-26,81.23863918011257,37205.39861438927
2021-05-27,81.34234648969385,37245.10921267436
2021-05-28,81.36750701683616,37254.47439068904
2021-05-29,81.18396177786929,37171.97370284538
2021-05-30,81.34349902364934,37244.15954342268
2021-05-31,81.4437689499301,37294.76527629152
2021-06-01,81.26645512911983,37222.77300975704
2021-06-02,81.2112211025176,37205.19285288226
2021-06-03,81.19181360134912,37196.180312430006
2021-06-04,81.145700619855,37185.324464066805
2021-06-05,81.19021725688417,37167.33724517384
2021-06-06,81.33474320818588,37275.03941251607
2021-06-07,81.21945212984188,37185.32955205343
2021-06-08,81.1256435837801,37168.64709021644
2021-06-09,81.34443064939728,37261.6544331084
2021-06-10,81.00909743768223,37112.371250760334
2021-06-11,81.08677157415558,37114.98951811211
2021-06-12,81.22258095220172,37191.403606830994
2021-06-13,81.15102748167386,37178.58588358402
2021-06-14,81.15277090726445,37169.73154904723
2021-06-15,81.29183085342632,37210.12389336451
2021-06-16,81.03862202298586,37144.03543961484
2021-06-17,81.06354563446915,37159.00930793385
2021-06-18,81.0511873266941,37136.24781691031
2021-06-19,80.91239308155258,37066.27826186793
2021-06-20,81.12509902311699,37168.44486921163
2021-06-21,81.0363964690116,37109.937938642295
2021-06-22,81.04543446692473,37122.18451406537
2021-06-23,81.17303513537011,37183.20756191336
2021-06-24,81.12588310819139,37160.407257503
2021-06-25,80.91099125923277,37054.82145539654
2021-06-26,81.14106481127116,37187.78105875423
2021-06-27,81.03258538117305,37124.25433951332
2021-06-28,81.03140575845275,37156.41685279196
2021-06-29,80.93477031581257,37078.03214698484
2021-06-30,80.9817312528559,37096.65399878449
