,LPT St1 Efficiency,LPT St1 Power
2020-01-02,82.92860896973778,27388.71618681097
2020-01-03,83.08525679575118,27450.48923505177
2020-01-04,83.03456099631157,27441.1970470813
2020-01-05,83.14370880593397,27467.55925630153
2020-01-06,83.0815708093437,27459.17169491455
2020-01-07,83.08722074959621,27444.13820915382
2020-01-08,83.05424507165402,27441.61765431849
2020-01-09,82.94151576838537,27389.70628649497
2020-01-10,82.95567258368709,27386.26801457473
2020-01-11,82.80735897111515,27349.874274425907
2020-01-12,82.95713391942651,27398.339869747077
2020-01-13,82.92488407181644,27378.09578276285
2020-01-14,83.06583416608119,27437.79858625696
2020-01-15,82.93533569510537,27381.247317449124
2020-01-16,82.93108399913177,27398.481000028627
2020-01-17,83.05162592980894,27431.973847077552
2020-01-18,82.7804788201368,27333.949492403302
2020-01-19,82.86276571460728,27379.88016726188
2020-01-20,83.01489352408369,27443.48479822585
2020-01-21,82.99411995530278,27420.939974783923
2020-01-22,83.09351788928281,27446.58961478928
2020-01-23,82.99222165454272,27416.764170149858
2020-01-24,83.20797186950803,27502.822169146413
2020-01-25,83.06445775368465,27437.50554303432
2020-01-26,82.74041144832735,27322.093552150058
2020-01-27,82.90542141189727,27401.217721364927
2020-01-28,82.8658196382533,27373.861879618333
2020-01-29,82.77316932755167,27351.491825352583
2020-01-30,83.01567844494154,27443.74221337868
2020-01-31,83.03455174072184,27423.34031259592
2020-02-01,83.08451641530559,27437.262612231203
2020-02-02,82.89072322868817,27383.437848861653
2020-02-03,83.09582021665751,27459.364394973
2020-02-04,83.09358944266368,27455.40354291075
2020-02-05,82.91581453312828,27392.78913880075
2020-02-06,82.76175696675955,27314.72050946777
2020-02-07,82.97255677119327,27405.14645239059
2020-02-08,82.95049191323498,27391.882370403757
2020-02-09,82.7360843457239,27321.49940237204
2020-02-10,82.97290708998521,27464.595209446637
2020-02-11,83.05658981521763,27443.340118419976
2020-02-12,82.91195589389697,27380.0215272995
2020-02-13,82.93149853235911,27390.954280641537
2020-02-14,82.97444057836033,27406.06715071654
2020-02-15,82.96241916130079,27440.143883353343
2020-02-16,82.8848183361509,27411.46226686753
2020-02-17,82.89076664202922,27386.369980842865
2020-02-18,82.80025427856368,27358.451402297585
2020-02-19,82.84675384009729,27360.21414313923
2020-02-20,82.81641541970487,27361.699490867584
2020-02-21,82.90296632118728,27392.49065245293
2020-02-22,82.92082996191586,27409.02285244953
2020-02-23,83.0376144287724,27447.361746276005
2020-02-24,82.80471345571577,27353.176916823275
2020-02-25,82.88763330520231,27384.26168201168
2020-02-26,82.87976458695105,27379.28902076827
2020-02-27,82.82853419304563,27356.989111654733
2020-02-28,82.89885484292651,27419.444120840068
2020-02-29,82.78737070238361,27362.44422648844
2020-03-01,82.83152510642016,27377.78791229472
2020-03-02,82.88952891494334,27399.186951400137
2020-03-03,83.12381964415407,27478.23718440717
2020-03-04,82.8907867096675,27391.62644818063
2020-03-05,82.76531915758763,27372.765099813638
2020-03-06,82.98352262126421,27419.784642392653
2020-03-07,82.69616453954876,27311.28757295524
2020-03-08,82.91789768518866,27382.26042252208
2020-03-09,82.88687556416623,27431.435793386943
2020-03-10,82.98943590435306,27465.675537100626
2020-03-11,82.86409389839115,27379.72253320289
2020-03-12,82.7878801461134,27381.15282678053
2020-03-13,82.68684405036954,27312.4221423449
2020-03-14,82.82274372903896,27349.3897692607
2020-03-15,82.75096154920772,27321.741021072008
2020-03-16,82.83875798509219,27371.966334849825
2020-03-17,82.93561130433913,27389.488608728683
2020-03-18,82.7230229588435,27350.0128742118
2020-03-19,82.9195918433255,27395.4974422904
2020-03-20,82.72946464663879,27341.79011902297
2020-03-21,82.87062192420218,27399.332859238533
2020-03-22,82.93164220772483,27427.13937299077
2020-03-23,83.00327771969202,27440.545592117654
2020-03-24,82.83990282767697,27370.063072764944
2020-03-25,82.92286878223055,27385.367383601257
2020-03-26,82.7151617654508,27327.13434441601
2020-03-27,82.92850961424958,27408.21294071166
2020-03-28,82.88667607108873,27387.151252089232
2020-03-29,82.84221512246293,27405.761379639454
2020-03-30,82.87892467084939,27372.634592133152
2020-03-31,82.82753317588414,27392.51939269019
2020-04-01,82.7340663328225,27330.121679553224
2020-04-02,82.94360977798472,27411.70840055328
2020-04-03,83.04427632465715,27444.74260994932
2020-04-04,82.84650216875967,27357.496575402463
2020-04-05,82.82790089727159,27392.939005944518
2020-04-06,82.66074471040476,27348.642333410746
2020-04-07,83.0407398893421,27426.63846745645
2020-04-08,82.76061613910005,27361.33131815729
2020-04-09,82.83265740878524,27389.119530316617
2020-04-10,82.65290953633445,27307.59435194336
2020-04-11,82.75248877781885,27355.19890292848
2020-04-12,82.74564066509348,27376.800094610622
2020-04-13,82.69403306817037,27347.68904794664
2020-04-14,82.69471021316147,27348.179211646304
2020-04-15,82.83128081843607,27395.645936138204
2020-04-16,82.79593928091452,27390.205057353214
2020-04-17,82.81603665509458,27407.94257440463
2020-04-18,82.93406149929332,27428.993871243714
2020-04-19,82.85557461439947,27399.196456696514
2020-04-20,82.86802619378561,27423.56668269601
2020-04-21,82.69095116836677,27346.39653116293
2020-04-22,82.82017302412444,27370.716364413267
2020-04-23,82.66545961208838,27354.376955898504
2020-04-24,82.71887529394031,27327.63858993837
2020-04-25,82.83500606951185,27380.43316678368
2020-04-26,82.8551786233952,27392.758491192977
2020-04-27,82.76358447641108,27384.62405171431
2020-04-28,82.79025350216534,27415.23610768968
2020-04-29,82.71255366356802,27352.938830985084
2020-04-30,82.64726141325396,27319.21960237145
2020-05-01,82.83031671747482,27361.502609610205
2020-05-02,82.89733035322574,27444.359312376557
2020-05-03,82.86467192309101,27399.271042921075
2020-05-04,82.84967325000295,27410.268620566472
2020-05-05,82.75213573246675,27350.93301935073
2020-05-06,82.79162406076456,27404.13147572294
2020-05-07,82.77362302955189,27390.3506596417
2020-05-08,82.738654788783,27350.965917446687
2020-05-09,82.87903021819788,27430.00737877577
2020-05-10,82.83639073050941,27423.01147671287
2020-05-11,82.74611034414303,27369.88733058048
2020-05-12,82.88985116761174,27415.91788242048
2020-05-13,82.66317941448779,27343.42895265108
2020-05-14,82.9490325828655,27445.371366358024
2020-05-15,82.76095719486388,27365.74022985732
2020-05-16,82.64489514833868,27348.372570306336
2020-05-17,82.69820696221704,27352.691637532054
2020-05-18,82.81939680621862,27406.900384468758
2020-05-19,82.59612031968632,27308.784941230657
2020-05-20,82.76723288841724,27379.95866631722
2020-05-21,82.73165932344418,27328.44130371484
2020-05-22,82.93039006502862,27458.882815688645
2020-05-23,82.91852564575025,27462.13157908726
2020-05-24,82.84497851044588,27424.22875388142
2020-05-25,82.59200671478304,27340.648178592997
2020-05-26,82.6776769002305,27355.351676006507
2020-05-27,82.68345794741201,27366.75893362709
2020-05-28,82.70113961450637,27348.339415763126
2020-05-29,82.72061048292062,27376.464089608147
2020-05-30,82.63553100082916,27339.87363808006
2020-05-31,82.62811330448024,27329.792459854794
2020-06-01,82.7618128239048,27385.80258906444
2020-06-02,82.76617129969235,27388.072209665577
2020-06-03,82.7660083845225,27396.73572877032
2020-06-04,82.52184526513851,27313.0555829655
2020-06-05,82.65098637875275,27346.404446969093
2020-06-06,82.79403996926754,27397.920284233875
2020-06-07,82.58416034896149,27314.45948621183
2020-06-08,82.55800534629248,27320.20987472525
2020-06-09,82.7240785864553,27353.446559640917
2020-06-10,82.76338862270528,27377.97219853192
2020-06-11,82.7360898458252,27377.90578710144
2020-06-12,82.70780883943527,27347.728298966194
2020-06-13,82.58311102601981,27297.92649138058
2020-06-14,82.64208028247917,27340.883889336797
2020-06-15,82.85982288937484,27422.22446825962
2020-06-16,82.69954501720136,27380.360141890444
2020-06-17,82.7030685630437,27351.85015585613
2020-06-18,82.61954099198269,27342.50356760455
2020-06-19,82.62963287421081,27323.95310765581
2020-06-20,82.4999105222213,27290.45948951328
2020-06-21,82.59303913043237,27358.094041014825
2020-06-22,82.85128389675812,27411.41633942832
2020-06-23,82.7224565656054,27374.79111496009
2020-06-24,82.7339686920295,27384.670889728422
2020-06-25,82.57569071976808,27331.87023834493
2020-06-26,82.68933122413074,27368.16105905677
2020-06-27,82.79951831911349,27397.648234057848
2020-06-28,82.58992648709985,27328.087862048586
2020-06-29,82.41593377811992,27258.731215545016
2020-06-30,82.71538130764583,27370.14011994155
2020-07-01,82.51282235137217,27285.030061584283
2020-07-02,82.63805766345965,27347.424526417508
2020-07-03,82.66337548469835,27362.83823323364
2020-07-04,82.65569054489485,27366.897738041684
2020-07-05,82.6672135924335,27341.74867975294
2020-07-06,82.64378815317035,27354.69951855017
2020-07-07,82.68289070116333,27379.04617082922
2020-07-08,82.59703939583434,27335.724354491063
2020-07-09,82.53245594236635,27320.6969303966
2020-07-10,82.66546058880338,27352.79522860844
2020-07-11,82.71763087407048,27351.636775094004
2020-07-12,82.58678448947713,27338.751793811884
2020-07-13,82.72804055755103,27388.23037754317
2020-07-14,82.58979353367359,27363.25743609671
2020-07-15,82.52464534755748,27319.308345702324
2020-07-16,82.60353237958019,27348.28052335644
2020-07-17,82.8275794630341,27432.81350217001
2020-07-18,82.65895318973666,27365.66321077724
2020-07-19,82.38559195757126,27273.00864102279
2020-07-20,82.65455340258195,27345.781928781154
2020-07-21,82.71871409716978,27363.98325624352
2020-07-22,82.55825722546706,27345.788805973327
2020-07-23,82.6180291651233,27347.908771829883
2020-07-24,82.76682776974904,27404.228430296167
2020-07-25,82.69061514270834,27377.64606627024
2020-07-26,82.70630872334976,27368.68884118101
2020-07-27,82.62544825887458,27344.303995854123
2020-07-28,82.57359247160983,27341.22073932485
2020-07-29,82.64680856658337,27353.90694613245
2020-07-30,82.67280475153724,27372.630296285624
2020-07-31,82.6481592926748,27352.93851058888
2020-08-01,82.51343287008133,27335.50126284082
2020-08-02,82.74363826079339,27386.81420664543
2020-08-03,82.6315959733707,27329.532264471
2020-08-04,82.49726288343568,27300.340929810754
2020-08-05,82.52509769891836,27341.117806524355
2020-08-06,82.32272517536104,27270.01064637971
2020-08-07,82.56863506969535,27354.575143585826
2020-08-08,82.68335219369828,27363.314061963258
2020-08-09,82.42404692849293,27263.615491454573
2020-08-10,82.69938611470977,27391.359465258556
2020-08-11,82.49377781857397,27291.115091689408
2020-08-12,82.54481722295507,27332.984179614054
2020-08-13,82.52923412006835,27309.006000391862
2020-08-14,82.57303609991858,27337.749549967768
2020-08-15,82.71664379594948,27393.23475477476
2020-08-16,82.52330756571145,27330.007751084748
2020-08-17,82.54988393677543,27320.266316533165
2020-08-18,82.63538315513617,27376.239015080097
2020-08-19,82.56162320890488,27340.231797215547
2020-08-20,82.60323547226774,27369.789132702692
2020-08-21,82.6109286246717,27353.09474887793
2020-08-22,82.6405748810419,27365.827630246396
2020-08-23,82.67714182527517,27395.99141120907
2020-08-24,82.44117016883632,27297.135096256967
2020-08-25,82.61178430677157,27360.990045886112
2020-08-26,82.6491417505982,27359.83560566268
2020-08-27,82.43102602637315,27309.824524617245
2020-08-28,82.61808734179186,27363.61166057623
2020-08-29,82.63602922116287,27366.54263527912
2020-08-30,82.31017092865898,27266.41313600697
2020-08-31,82.49216901918126,27304.48874881083
2020-09-01,82.63982128939196,27352.35444856737
2020-09-02,82.41012216287004,27293.594331512915
2020-09-03,82.60621085105458,27350.47805274336
2020-09-04,82.66663004231053,27372.2572236612
2020-09-05,82.75955316507833,27400.610169023174
2020-09-06,82.28695418639836,27235.82799773065
2020-09-07,82.59656663160547,27352.19679161456
2020-09-08,82.43163319160064,27297.67813005784
2020-09-09,82.52315914280621,27364.49512207405
2020-09-10,82.45568753648952,27319.760212430945
2020-09-11,82.6750690928951,27375.292099428378
2020-09-12,82.5762257414745,27356.08950270599
2020-09-13,82.61982827476552,27347.5537544974
2020-09-14,82.66711730503197,27404.23931981848
2020-09-15,82.61043662378403,27371.249254356117
2020-09-16,82.39705689459898,27276.540604149723
2020-09-17,82.62206077152044,27361.907838376275
2020-09-18,82.33360123497344,27265.043999304275
2020-09-19,82.56086952095413,27350.292307567408
2020-09-20,82.38111699623394,27256.9186835033
2020-09-21,82.46983359350372,27335.10953832335
2020-09-22,82.47048823156346,27325.799820746823
2020-09-23,82.38899878711267,27296.017883905803
2020-09-24,82.5056057839565,27345.987732813363
2020-09-25,82.29963354032522,27251.192522567653
2020-09-26,82.68613931689141,27418.0852429015
2020-09-27,82.55814059979966,27373.2953518021
2020-09-28,82.42820159550254,27326.474145363456
2020-09-29,82.41019415239471,27321.442382351943
2020-09-30,82.49281672570109,27351.003744546324
2020-10-01,82.51721875598426,27334.962916772343
2020-10-02,82.57569057426569,27353.438200758606
2020-10-03,82.59848646113497,27384.39027549337
2020-10-04,82.75834533926994,27426.239372027027
2020-10-05,82.44699397086053,27333.53813613045
2020-10-06,82.436502261626,27325.29461174851
2020-10-07,82.28791924561962,27273.17777970846
2020-10-08,82.59877190451745,27383.163796501085
2020-10-09,82.34735306580652,27294.02717820796
2020-10-10,82.44526688705729,27325.65142427192
2020-10-11,82.46891085641629,27358.04282416245
2020-10-12,82.54651137299322,27332.24712655744
2020-10-13,82.38536513491155,27293.047761172744
2020-10-14,82.45767197557187,27321.900504666944
2020-10-15,82.24523519130851,27227.26302360004
2020-10-16,82.42032327503561,27322.55335499514
2020-10-17,82.48491869603173,27330.544844855085
2020-10-18,82.31827223734497,27271.16450002181
2020-10-19,82.3899807645645,27333.977247310984
2020-10-20,82.23438041091275,27230.31673268853
2020-10-21,82.46184946688012,27321.92416713657
2020-10-22,82.25037688514762,27268.069639377463
2020-10-23,82.53813609399265,27375.03545167701
2020-10-24,82.3181900293069,27296.602141138632
2020-10-25,82.27423925826821,27262.29692113841
2020-10-26,82.25531474847328,27275.39348999784
2020-10-27,82.34764920236425,27281.79748517416
2020-10-28,82.34061995287175,27302.59119711357
2020-10-29,82.27455826521698,27282.351595260927
2020-10-30,82.1015859636675,27220.01700266252
2020-10-31,82.22585545309764,27286.995629933524
2020-11-01,82.40668078596777,27351.19931579966
2020-11-02,82.10041806932072,27212.27831944942
2020-11-03,82.15232344874909,27272.309842148545
2020-11-04,82.09985841753483,27218.492182417707
2020-11-05,82.21776858135198,27257.57785677236
2020-11-06,82.31578444690598,27296.84862499775
2020-11-07,82.23209535406355,27257.4755525458
2020-11-08,82.08441014257238,27211.40919632295
2020-11-09,82.08909859649795,27218.0877036909
2020-11-10,82.21658972438397,27297.409086142103
2020-11-11,82.26973554494053,27292.55591456701
2020-11-12,81.91572845311421,27162.8960712422
2020-11-13,81.94082607085804,27159.38406963597
2020-11-14,82.05371094304229,27225.52583265665
2020-11-15,82.06657197412243,27245.38389789939
2020-11-16,81.96871977867671,27197.14352129789
2020-11-17,82.04179178604177,27224.142477769423
2020-11-18,81.8945898353325,27163.29913328698
2020-11-19,82.09599221299734,27235.53717394892
2020-11-20,82.05417203113441,27234.239826163244
2020-11-21,81.89459995156736,27165.28117070432
2020-11-22,82.08992347240219,27234.05605339209
2020-11-23,82.04261605089219,27215.161417221112
2020-11-24,81.94285298758712,27195.837082156868
2020-11-25,82.04409810559788,27213.41084495396
2020-11-26,81.80460246329238,27138.884787986462
2020-11-27,82.0112786932187,27231.25604206097
2020-11-28,81.99433783622135,27208.595827486744
2020-11-29,81.80349957350793,27104.96094036464
2020-11-30,81.9572581881973,27192.74259041409
2020-12-01,82.02475492491105,27235.491236908827
2020-12-02,82.03105506426355,27237.21206273565
2020-12-03,81.86556144232371,27191.010394683348
2020-12-04,81.95747503174567,27196.552572366203
2020-12-05,82.06239913760321,27272.88812831649
2020-12-06,81.95861988297018,27207.71263767605
2020-12-07,81.8925089249421,27162.569673188496
2020-12-08,81.90665950910075,27198.40542868154
2020-12-09,82.01069430608582,27231.3674128976
2020-12-10,81.89202736395842,27197.139845739795
2020-12-11,81.9267449728989,27208.79860635395
2020-12-12,81.7533895528257,27152.40934955632
2020-12-13,81.79156059267657,27153.74336924446
2020-12-14,81.82663006769837,27163.916067018963
2020-12-15,81.8654489750533,27195.28095335862
2020-12-16,81.70821875213542,27121.960550404576
2020-12-17,81.8822066782483,27186.694257546333
2020-12-18,81.63818232973345,27112.41796007132
2020-12-19,81.74222890780655,27151.961777885448
2020-12-20,81.58031317374144,27083.005901642435
2020-12-21,81.54119902776765,27080.859518577206
2020-12-22,81.63690333307477,27114.85694472817
2020-12-23,81.72288893360678,27147.97471001358
2020-12-24,81.68008604257987,27114.977194917534
2020-12-25,81.75901723472302,27148.2281541411
2020-12-26,81.77239610508832,27176.67388355452
2020-12-27,81.75970521279187,27150.972558136844
2020-12-28,81.6666967321481,27144.431292599245
2020-12-29,81.73054590424378,27157.884393729066
2020-12-30,81.86488696135933,27198.218251391405
2020-12-31,81.79116809436667,27173.32175011296
2021-01-01,81.79024748974216,27195.38938917385
2021-01-02,81.67327513747291,27151.04220726033
2021-01-03,81.7200928629643,27166.760709471484
2021-01-04,81.57103605759504,27112.38221973278
2021-01-05,81.537001146782,27098.482485821954
2021-01-06,81.59571706076648,27096.832931905043
2021-01-07,81.64872337134743,27100.365056847106
2021-01-08,81.55579944681664,27110.585554831887
2021-01-09,81.47191442277878,27072.244025304863
2021-01-10,81.5066286749605,27100.997823519247
2021-01-11,81.65992002599424,27147.820872433185
2021-01-12,81.43343287333302,27070.3826085364
2021-01-13,81.66417567527272,27151.03407150389
2021-01-14,81.56215462758212,27123.15379577053
2021-01-15,81.61843679130676,27130.50988499969
2021-01-16,81.56613560366334,27103.63057666864
2021-01-17,81.5343111818759,27087.371286643564
2021-01-18,81.39274212618281,27065.705317714488
2021-01-19,81.5349399722634,27091.65819188193
2021-01-20,81.36729520534072,27065.754860579826
2021-01-21,81.42202902200872,27072.604017292037
2021-01-22,81.44733123799986,27062.349410168783
2021-01-23,81.60990971801009,27154.944856870366
2021-01-24,81.57263842558562,27124.24225265807
2021-01-25,81.55675700236587,27136.309667467525
2021-01-26,81.35609223481671,27041.46330762021
2021-01-27,81.38664565053337,27094.738354946687
2021-01-28,81.45109235003865,27074.562872080805
2021-01-29,81.41701107923181,27064.593979179
2021-01-30,81.25389592360877,27026.167646304293
2021-01-31,81.3753192553639,27055.988210910647
2021-02-01,81.30637467209513,27045.959315848013
2021-02-02,81.59694072271249,27120.81530634041
2021-02-03,81.36005694057356,27051.187380082836
2021-02-04,81.33635043526873,27058.538659750942
2021-02-05,81.33974478927799,27075.619252136483
2021-02-06,81.32727708592327,27058.518056769077
2021-02-07,81.28332887181739,27016.4003019064
2021-02-08,81.40012325034222,27064.602988183546
2021-02-09,81.02151393307858,26946.173913331117
2021-02-10,81.30369973302217,27044.24255331768
2021-02-11,81.15717836051265,26990.8251774025
2021-02-12,81.37040929974197,27066.624349528814
2021-02-13,81.4746955832811,27100.060241923515
2021-02-14,81.05332164017834,26965.759241874977
2021-02-15,80.98268246053966,26931.322503405583
2021-02-16,81.34171447940896,27069.36723756616
2021-02-17,81.26725402854238,27049.1778527434
2021-02-18,81.19883638627796,27012.93615677225
2021-02-19,81.1385889984154,27001.73668701584
2021-02-20,81.23880967189785,27042.942244909715
2021-02-21,81.00361567131147,26979.23974947097
2021-02-22,81.25065251426783,27066.587803924813
2021-02-23,81.14243250470975,27024.588285093403
2021-02-24,81.06315666832491,26968.745942129568
2021-02-25,81.29377136592655,27086.0997883011
2021-02-26,80.97732276398173,26953.78600582118
2021-02-27,80.95947495818314,26931.054006577982
2021-02-28,81.22907221064499,27063.756379492967
2021-03-01,81.28843683808616,27055.398653921588
2021-03-02,81.0393263511618,26957.594851938306
2021-03-03,81.05198306495356,26979.06647234181
2021-03-04,81.17812774171506,27032.57509545661
2021-03-05,81.06754354203201,27001.221929987805
2021-03-06,81.07397228737747,26988.817377134517
2021-03-07,81.03290406752362,26989.818089561217
2021-03-08,81.15798474236814,27017.656234415208
2021-03-09,81.30444226788573,27077.63655281821
2021-03-10,81.0705623793133,26998.477111623
2021-03-11,80.93967602507827,26947.95708674576
2021-03-12,80.9603291943849,26954.081400331244
2021-03-13,80.99443475440015,26980.0938979601
2021-03-14,80.87899396220232,26949.549214731524
2021-03-15,81.25174498593039,27064.71038403926
2021-03-16,81.04584713392154,27021.47631213756
2021-03-17,80.95494886693176,26966.03524948525
2021-03-18,80.94831052432212,26930.616049042565
2021-03-19,81.04542220171525,26977.71289728305
2021-03-20,80.86683744338491,26935.259005479293
2021-03-21,80.85671021294519,26934.530791812136
2021-03-22,81.06670470322828,27007.735449429638
2021-03-23,81.01454553340496,27001.414151860747
2021-03-24,80.90074964760905,26971.73845353967
2021-03-25,81.15357651189034,27028.22711573874
2021-03-26,80.81295013776928,26933.214221153157
2021-03-27,80.84253596062537,26940.865488829924
2021-03-28,80.78123979000844,26881.17341907456
2021-03-29,80.87452580235897,26945.464796752254
2021-03-30,80.86020163937032,26930.80459214632
2021-03-31,80.74265046649678,26902.508341459976
2021-04-01,80.77459783055045,26935.84707611305
2021-04-02,80.791384902182,26903.878531735478
2021-04-03,80.78486306873324,26916.02555033552
2021-04-04,80.80446104528399,26944.178910183527
2021-04-05,80.75751683839697,26913.79685829776
2021-04-06,80.9067278518075,26956.94241071051
2021-04-07,80.62884421976077,26852.430390055288
2021-04-08,80.74421424618342,26919.17692129256
2021-04-09,80.75273793147375,26919.66053318195
2021-04-10,80.65930291135108,26914.65912386766
2021-04-11,80.7041629828227,26889.90363624982
2021-04-12,80.72369080033477,26911.83936067044
2021-04-13,80.48468170390522,26799.91984676629
2021-04-14,80.63918921158006,26874.724856146546
2021-04-15,80.63732699237222,26863.59342731129
2021-04-16,80.60879977897268,26859.738729263718
2021-04-17,80.55273277471501,26846.49570516854
2021-04-18,80.6721562920307,26889.97759290564
2021-04-19,80.68259737191065,26914.269008176187
2021-04-20,80.67610815778797,26922.447643121945
2021-04-21,80.81339199871469,26941.50407203974
2021-04-22,80.7190636720947,26907.685423425886
2021-04-23,80.55941858183022,26833.893058462963
2021-04-24,80.51689771614113,26851.214594742847
2021-04-25,80.68043273214565,26905.461195002263
2021-04-26,80.61056713762956,26883.10687641136
2021-04-27,80.68089408126886,26930.75766253601
2021-04-28,80.51775182739974,26855.690482195387
2021-04-29,80.47489637519314,26828.57078808074
2021-04-30,80.50260064752194,26840.103624512423
2021-05-01,80.42572389431679,26834.356109901124
2021-05-02,80.60482836420648,26875.233800227677
2021-05-03,80.76690894345593,26930.857581039734
2021-05-04,80.54293809997547,26844.45885003211
2021-05-05,80.60254785891081,26874.79010293528
2021-05-06,80.613626317325,26898.579636532737
2021-05-07,80.39851526305002,26816.66346329284
2021-05-08,80.25745956955294,26771.072705011167
2021-05-09,80.51045968019262,26886.10693049459
2021-05-10,80.46618832266385,26871.006062378896
2021-05-11,80.50680449499504,26887.21057308557
2021-05-12,80.40855391312947,26825.21505319149
2021-05-13,80.42796499249248,26848.178894929224
2021-05-14,80.4375784285182,26840.51470798989
2021-05-15,80.38627718810866,26844.047587256428
2021-05-16,80.23819217939501,26747.194017499227
2021-05-17,80.3008027572603,26809.061518972307
2021-05-18,80.35784664217444,26801.39990194416
2021-05-19,80.57081804204863,26902.82665040593
2021-05-20,80.15166059575809,26744.769796689958
2021-05-21,80.26834467512575,26789.29658212181
2021-05-22,80.06893554588663,26739.692044032105
2021-05-23,80.34140477990269,26821.152937922056
2021-05-24,80.32804512950317,26849.47975905347
2021-05-25,80.31794707741257,26797.746258210063
2021-05-26,80.45567673885974,26864.557778450067
2021-05-27,80.24448618513306,26771.74441950328
2021-05-28,80.2833567414555,26781.75374010837
2021-05-29,80.3256161034146,26816.697368636007
2021-05-30,80.33497507396565,26803.40048719902
2021-05-31,80.14501825645334,26727.789922917946
2021-06-01,80.43408705425206,26857.289001287914
2021-06-02,80.24554551636828,26799.9785335174
2021-06-03,80.26173745498424,26807.72697999765
2021-06-04,80.27037120052977,26822.99757430748
2021-06-05,80.17358024278698,26755.39387495741
2021-06-06,80.28143263987616,26810.22138157954
2021-06-07,80.17824487021744,26757.5033333808
2021-06-08,80.19944673947448,26793.776139638838
2021-06-09,80.03465974760311,26706.69665258696
2021-06-10,80.18637432274568,26798.64184695153
2021-06-11,79.925164819822,26671.971214680285
2021-06-12,80.17509611215395,26759.42276598611
2021-06-13,80.05252695429817,26736.611902831897
2021-06-14,80.1025690733096,26747.591727560743
2021-06-15,80.27920002835914,26780.801683047084
2021-06-16,80.03741622770357,26754.74628418148
2021-06-17,80.17418404116785,26804.56113114051
2021-06-18,80.08111206308728,26759.500072405004
2021-06-19,79.94668262649272,26719.91107570636
2021-06-20,80.11501485622063,26763.18280063554
2021-06-21,80.0678324517277,26741.925437753016
2021-06-22,80.17805684993375,26786.97903080274
2021-06-23,79.89227982974518,26672.24738923703
2021-06-24,80.12580322885444,26760.909497848563
2021-06-25,79.89540478152372,26693.537780705992
2021-06-26,79.95338509313953,26711.59542072626
2021-06-27,80.00194099494189,26730.067247709223
2021-06-28,79.86223156769525,26703.19563845381
2021-06-29,80.03544204376459,26751.02635808722
2021-06-30,79.97603476996811,26722.618469446184
