,Efficiency,Head,Vol. Flow Rate,Power,Efficiency deviation,Head deviation,Anomaly score,Suction Pressure,Discharge Pressure,NPSH
2021-01-01,72.01362387061677,7430.314486608322,2024.8683292543947,5242.375467997517,2.0609811171464174,86.113268898245,0.4512439978969657,,,
2021-01-02,71.8641957277127,7490.3648321141845,2021.704830033889,5287.458307557506,2.20091876238897,30.33364734006456,0.41592135832247856,,,
2021-01-03,72.11195505106062,7423.8031105221435,2037.381315307785,5262.962791743223,2.000188894862731,75.73211381234711,0.3533399204459988,,,
2021-01-04,71.72155154228213,7491.8576156543,2001.6401006146298,5246.439116641047,2.283368759561761,55.928248515949015,0.4836833463780414,,,
2021-01-05,72.48340812413925,7425.918494823652,2024.227048648029,5203.668260556935,1.58927302180484,91.37498950150928,0.7467798385645956,,,
2021-01-06,71.94045690023438,7417.027244832786,1997.025790891521,5166.294530395473,2.0372365314520184,136.6905165528128,0.5555723516123232,,,
2021-01-07,71.88354244544075,7451.239631820209,1989.285470110757,5174.101873516853,2.036098580389919,112.15353054134452,0.47935909316090486,,,
2021-01-08,72.0305613107116,7353.861901427209,2054.2622363084074,5262.51514672212,2.1322253982136186,122.88407955644136,0.28878208923952353,,,
2021-01-09,71.45666908646778,7522.894214638314,1952.3655100885999,5157.5342336918175,2.186072239196717,86.64889775093646,0.5180532645485273,,,
2021-01-10,71.79764547440573,7473.985433842236,1971.4527139047125,5149.525523846508,1.9882498798796222,111.6986737768743,0.5013906902479136,,,
2021-01-11,71.96104217389995,7376.003353224949,2032.009932820221,5226.227286107573,2.134987624560705,130.78323746775297,0.42764801555613136,,,
2021-01-12,71.22334773813375,7458.317796109507,1938.16712890288,5092.70512423,2.312905728637849,168.9732927618926,0.5355627021717405,,,
2021-01-13,71.01797132413724,7602.653854739599,1829.3902168403279,4914.078763874223,1.7024553021652182,160.60837420999115,0.5853476669753099,,,
2021-01-14,71.79758348442584,7385.189061662458,2006.4768157973624,5178.747562326669,2.2218469629662443,156.06723701110332,0.6606066825786845,,,
2021-01-15,71.78292858562156,7429.0629350106565,2014.9505938590978,5232.582351562548,2.261923195955724,100.75376327956133,0.47882827270878975,,,
2021-01-16,72.26339198265528,7370.292578399183,2011.4824671895399,5147.797351937426,1.7710554189133367,164.2060908949377,0.32943273290440644,,,
2021-01-17,71.346825878983,7465.626292528525,1949.34678970362,5118.226516907111,2.2732750437941545,147.6902203419504,0.47815208499975725,,,
2021-01-18,71.21818057561299,7443.711291881116,1971.3738170335782,5170.189193020824,2.5671230521388386,142.07143682691094,0.5324665724709017,,,
2021-01-19,72.16487515288142,7415.061636965591,2008.3669186629602,5178.103959276856,1.8602256031074529,123.64302283941294,0.5225806955977776,,,
2021-01-20,71.67276978091293,7472.331438851485,1957.3567909016454,5120.480791852098,2.007406150849411,130.9725725214585,0.5509372136715999,,,
2021-01-21,71.19305003113777,7490.259010858202,1905.0445397527337,5029.249435055809,2.094784017007721,178.43531445088107,0.6590686258083228,,,
2021-01-22,71.37528860417144,7577.400873370032,1898.2703041907992,5056.723947806878,1.8617386772595568,99.7612463914692,0.5501182786010107,,,
2021-01-23,71.01434477456371,7591.280431834542,1875.4161633012618,5030.433485012039,2.051276450195761,114.449364038881,0.4846856759787238,,,
2021-01-24,72.00975903066787,7434.290408409218,1970.8787976310325,5105.60118164616,1.7718319515648813,152.11109455199121,0.5962674683852796,,,
2021-01-25,70.20372102367212,7674.166393828029,1818.9215532816756,4989.118902368616,2.4381906259404493,102.1816645698766,0.2762468163403688,,,
2021-01-26,71.29674407844871,7449.247784323375,1939.0298639036873,5083.537440286297,2.245979900828936,176.96488579701582,0.6794600326564266,,,
2021-01-27,71.67177846706088,7354.579253880433,1973.9207998120637,5082.509275888452,2.13262753152961,228.0197463544883,0.4301801223613742,,,
2021-01-28,71.78704621508608,7383.843724628096,1975.4797304022134,5098.563068502957,2.029051762930519,196.8066123691368,0.5565091179893163,,,
2021-01-29,71.2635108004825,7497.9913073103535,1956.7001306893892,5165.83818227795,2.4117401796879157,106.13352932791003,0.37191204957847773,,,
2021-01-30,71.3408057712691,7412.516423298259,1974.676404496242,5148.282865127764,2.4692672624527208,169.13807108143965,0.555694508484522,,,
2021-01-31,71.47645963357608,7512.358245408955,1897.3589589325948,5003.818690120255,1.7537325584183727,165.94305592530233,0.36734321749425414,,,
2021-02-01,71.51333421344548,7389.853860583097,1927.132906705859,4996.884323760615,1.940162586848467,251.23000603457888,0.46520659339030657,,,
2021-02-02,71.5174855157024,7477.372598307768,1968.0696503945537,5163.165605475509,2.2430368622567474,112.54033869903938,0.591792951332677,,,
2021-02-03,71.19764871869168,7420.845933195726,1951.81155696433,5104.632184310755,2.440937958540805,189.3896205988625,0.46593402639431675,,,
2021-02-04,70.67534853480781,7554.029019747587,1866.7887269706025,5006.620405327349,2.325566917471707,162.48507153915963,0.5450042691418464,,,
2021-02-05,71.32673819827,7454.6687053235,1914.800967616608,5021.557353533316,2.034269058854564,201.83008515573937,0.5468607547618933,,,
2021-02-06,71.04464950373854,7604.471573556825,1866.2715315550568,5012.464404055913,1.9523869829243856,112.68901199935371,0.5891159506672299,,,
2021-02-07,71.00601921227693,7471.669137701716,1883.0042642295066,4971.787698367045,2.116512769444365,224.57553201140078,0.5535932705389007,,,
2021-02-08,70.74397095083606,7452.507917530268,1863.7263603410793,4926.448710901754,2.2339767517220435,267.8341320433832,0.5427538908108103,,,
2021-02-09,70.25322096497557,7659.095848652242,1837.9594989072036,5027.892764786734,2.5314752768284596,93.45477771375324,0.5273485772416648,,,
2021-02-10,70.87228910765857,7468.416050966595,1858.3351083608218,4913.770635065394,2.065224205047582,258.66506358237734,0.403927569390919,,,
2021-02-11,69.75952095670445,7579.289649890828,1786.7764432946128,4871.178434179359,2.5751845844782086,233.93390681455955,0.373618490687395,,,
2021-02-12,70.8094324096891,7556.853003018893,1852.1725751387196,4959.867970788589,2.0818619038513075,177.93127805770777,0.28938529320088335,,,
2021-02-13,70.10590057419975,7691.127478479474,1786.8938192190956,4918.956582078488,2.2302721660389433,121.97870230143086,0.5831589960931062,,,
2021-02-14,71.13291009664268,7436.607355865205,1926.0402585968443,5052.524656398077,2.312391842833668,205.8423208887395,0.5637117298631904,,,
2021-02-15,70.17886168137655,7468.319216651026,1868.204332429903,4988.612072405095,2.832670811847719,246.42536781159566,0.5407236902471939,,,
2021-02-16,70.34475240879465,7614.455428194116,1790.416085433488,4862.95129453192,2.0354486591239533,195.12848637239617,0.5807031688723372,,,
2021-02-17,71.05011904364895,7446.457478688108,1936.1990419768656,5091.8278287408675,2.471373771177545,183.2937188408102,0.5171188876591073,,,
2021-02-18,70.27714540222074,7644.286005758096,1803.3107626078254,4921.893306390588,2.247685317337953,151.5755409821222,0.33198806534577097,,,
2021-02-19,69.93130047049317,7574.735945520519,1814.0852815391631,4930.516295567313,2.6743391410505573,207.65745255552682,0.6647838732392221,,,
2021-02-20,70.52752164635432,7563.569732522296,1818.85872312462,4894.473314804096,2.1139187770803236,212.85686357192822,0.5359225675249376,,,
2021-02-21,71.1726485825976,7519.971055393526,1894.847944616725,5023.613416762305,2.038711002027839,161.469013835568,0.4498125609448484,,,
2021-02-22,70.9104279882902,7441.416173857042,1893.5943736096092,4986.217828268528,2.291529813781884,241.59085913094643,0.5632971266231341,,,
2021-02-23,70.51868853043143,7397.898327568683,1861.5786632525142,4900.318738818416,2.443151443962419,325.12834336567477,0.42242163413803735,,,
2021-02-24,70.08374385524813,7622.117440702593,1802.8691574546356,4919.957564415467,2.437774825661633,174.2961124791124,0.5403919668349101,,,
2021-02-25,69.94110348456492,7576.653572823752,1794.1765398024638,4876.957034416934,2.4861032629658886,229.1698873737846,0.5111700507363793,,,
2021-02-26,70.30674375990696,7562.498137134062,1814.5667026103706,4897.563089972556,2.3025065096708266,219.2934846029744,0.5438633226427924,,,
2021-02-27,71.29726518520154,7346.6262300904455,1940.000819353229,5015.979955296727,2.2527409599476664,278.3727457180187,0.584472739947293,,,
2021-02-28,70.66315126052993,7490.581946168468,1849.3836799582004,4919.130958959191,2.2072263391565787,247.68845388378207,0.5533870682931068,,,
2021-03-01,69.6061654927027,7631.715339311718,1746.3667699614514,4804.505751538255,2.2234191318154535,221.9178907268308,0.3868468001818264,,,
2021-03-02,70.30867125153584,7586.12820608824,1818.79472198593,4924.178395063474,2.3322891633586447,190.3783914293471,0.4493387762422841,,,
2021-03-03,70.17529372228978,7544.87898705216,1790.9687669211314,4831.643214903173,2.2118158642243624,264.15224602670855,0.5001966378095881,,,
2021-03-04,70.12535073017759,7507.355446425672,1806.6241374898282,4853.0922428472195,2.424330300996113,284.36438171204264,0.5135812283668001,,,
2021-03-05,69.5906481894877,7622.302871601514,1813.1579633401464,4983.216626812571,3.008036535563412,161.24967422330292,0.5800870491879387,,,
2021-03-06,70.28367028752055,7564.370356349722,1793.887815529313,4844.538780518293,2.1399274065958616,241.74182812096518,0.33087585939220854,,,
2021-03-07,69.19789669015167,7680.58784929902,1725.8756329231067,4806.731565956205,2.3755487213871644,193.5365177778744,0.40188323560575934,,,
2021-03-08,68.67262428946289,7614.6771361705505,1709.421496740875,4756.152993910056,2.695144419798059,275.9013670885738,0.697984817384086,,,
2021-03-09,68.8573327771167,7597.691668322233,1713.366941839195,4743.737594622312,2.5597539958732427,288.9413898385715,0.4323028304881899,,,
2021-03-10,70.38745804468269,7444.205763936741,1814.7382830043618,4815.882628458223,2.223079077850035,337.3713823078061,0.5153488254875407,,,
2021-03-11,69.5870768036172,7533.22339200853,1760.0864518831904,4781.069518981643,2.4140038449226893,306.6901561082793,0.5199270583756126,,,
2021-03-12,69.07724480093142,7587.593488572353,1728.758489166416,4764.772606813586,2.5322363136487773,283.6480222612322,0.4639645292527894,,,
2021-03-13,68.54765468330297,7641.760393003289,1670.9586208308826,4674.178750723613,2.3393280770830693,287.2809861658279,0.5601214920073362,,,
2021-03-14,69.13957847036554,7689.907687626448,1706.6846608981361,4763.064796162934,2.193979790861166,203.4076514754158,0.5243991754431038,,,
2021-03-15,69.69927821479061,7508.42204370672,1743.4905855323116,4712.797804584107,2.0943541043632834,348.0873707609687,0.4202246473030193,,,
2021-03-16,69.05314232200246,7553.1347198338935,1734.1633902953486,4759.623539582541,2.623900056689391,312.701889870757,0.5566228681349559,,,
2021-03-17,69.43936540925819,7589.39333626447,1757.6041852693954,4820.157197056602,2.5306869066092688,253.0024784661348,0.5838910129363017,,,
2021-03-18,69.62918925850066,7531.585921391611,1766.9493829485468,4795.766289442102,2.4576780283561726,301.46469565984177,0.5081171664075385,,,
2021-03-19,68.64709167975448,7671.493013857381,1690.4933849760994,4740.345893888703,2.4840756324467637,238.01360116651972,0.6693052428428848,,,
2021-03-20,68.25369089713661,7672.187801326851,1657.5661592809156,4675.227628914654,2.465886093874849,270.24603939223397,0.31962589330711316,,,
2021-03-21,68.95828835401325,7565.303231324304,1688.6486471905816,4648.554946796012,2.14981973586902,346.0481214851145,0.35150524044561,,,
2021-03-22,69.23486689390718,7618.62594111194,1722.459152435916,4755.974599719638,2.2958725115417717,258.91490645214407,0.5799305762172214,,,
2021-03-23,68.05880923192527,7670.310711095595,1653.8343797311156,4676.914512431075,2.6141205147136755,275.85490917328957,1.4502146423085662,,,
2021-03-24,68.75022928455549,7745.372092243392,1692.097307787343,4783.351275563788,2.4009870627863052,162.5305999692647,1.538806350277918,,,
2021-03-25,70.02791384469295,7580.293722163382,1809.7484049063798,4915.547003156709,2.5451991921049024,207.52077170364294,1.4687440208993396,,,
2021-03-26,68.5066385176361,7696.221959257105,1683.2096324827405,4744.844011756457,2.5334818883981582,220.56840826015448,1.5729770396357043,,,
2021-03-27,69.73175609950479,7518.622535248107,1798.931709995097,4866.99793813191,2.7548902754339184,282.44575475679585,1.3238370955640475,,,
2021-03-28,69.39477047135648,7525.390132602003,1783.3442801158426,4852.619896643191,2.89703303009155,291.26558728215423,1.4756158254462806,,,
2021-03-29,68.6347328415741,7497.244801805885,1758.862380362841,4820.903182473923,3.3510469129614093,343.8928178312747,1.608825906814962,,,
2021-03-30,68.69258339874736,7474.728025834743,1716.9651254948417,4687.980805708855,2.769480669938155,408.30684867041543,1.6034933177963613,,,
2021-03-31,67.94883812251709,7608.3458485566525,1710.1587145139551,4804.889827642646,3.4281458089073507,281.4954369293932,1.5165707904615375,,,
2021-04-01,67.23166713192214,7678.829640788791,1601.9079860219886,4590.896734206266,2.792182693352707,319.26237318922125,1.7434876762917717,,,
2021-04-02,68.58216116707713,7547.834550039289,1726.8384709664467,4768.718934336913,3.003319720003453,325.32697899426387,1.5511636026685565,,,
2021-04-03,68.36312715077398,7561.916597454765,1708.4178454704968,4741.79601385451,2.9920959176072275,329.6655570747376,1.7372230955280206,,,
2021-04-04,69.07546051545984,7501.371350065427,1797.502695448159,4898.072759911305,3.393323177642142,301.1259544864143,1.638525252428516,,,
2021-04-05,69.54377704196438,7543.584456381775,1810.3997003656978,4927.569486203448,3.034220710778352,243.41591816110218,1.7273915574316134,,,
2021-04-06,68.70482300196184,7583.350459743069,1739.0251658218592,4816.35593348506,3.0329915708113973,277.6243744350716,1.6041795902094749,,,
2021-04-07,68.09823173394987,7502.284796154443,1765.3152364459886,4879.988365067629,3.9682087216249857,332.3999673995682,1.8735474578823068,,,
2021-04-08,69.17697443041712,7560.180620620828,1793.4334832578882,4918.069786924869,3.240944110306485,246.38589612128376,1.5520494737028474,,,
2021-04-09,68.82414693623059,7539.583296084857,1779.074979477425,4890.345736151674,3.414290307237229,281.34172443771877,1.6685320086954614,,,
2021-04-10,67.71521596466123,7527.0656059457715,1725.517958006191,4812.798978334222,3.8537585104161574,347.41643604803716,1.8307118153423432,,,
2021-04-11,68.12052388304772,7541.731900425686,1747.7926699704512,4855.364397720763,3.7268844915829247,310.47542960386255,1.7066861389039514,,,
2021-04-12,68.39632514768512,7546.962651702454,1756.5292567201209,4863.328726235199,3.5602905613163913,296.5080915774244,1.5470374113008183,,,
2021-04-13,68.0149236294601,7533.959035749896,1746.56092909043,4854.467365465312,3.817087984170271,319.4800351596731,1.6441173538732234,,,
2021-04-14,69.62905917167407,7467.767895561393,1847.6742373426507,4972.382084453745,3.228497608395813,272.639307760293,1.5744805923961158,,,
2021-04-15,68.95164865819662,7471.224879968312,1833.3147791431095,4984.516050472045,3.7982121853766966,287.13164610280114,1.7666872947596075,,,
2021-04-16,67.70508197010693,7555.640501346403,1742.8754488883974,4880.397268422163,4.080861140998035,301.48404976520004,1.6970442088981876,,,
2021-04-17,67.77263974666816,7577.53983582045,1755.417001569927,4924.849146450877,4.170072772955924,267.0431626096223,1.6744281016337612,,,
2021-04-18,68.65005398888026,7407.0134198823735,1821.2187950703058,4930.638669344348,4.009086974147041,366.46308627974366,1.6330658801228888,,,
2021-04-19,67.47529830249286,7537.628061046273,1698.0929147572058,4759.815794686516,3.7508631319722108,364.2790241965214,1.935521309310423,,,
2021-04-20,68.55202443354867,7427.906166432183,1813.046802414286,4929.39868486366,4.045826584558476,355.7853305499595,1.6981268825548288,,,
2021-04-21,68.08359270250772,7417.529747397398,1806.1313507409654,4937.475666757884,4.462392428049523,374.80606417639484,1.7379505586705022,,,
2021-04-22,67.42584474873235,7559.631991303591,1722.6687358568986,4846.350669096724,4.107514449478891,317.6992728395096,1.921970455463212,,,
2021-04-23,68.24885861603276,7453.302271733939,1829.6816877579593,5013.807882778332,4.473754042151938,309.5956185686123,1.8411450108042553,,,
2021-04-24,67.63133007997345,7428.147479331384,1749.794288713256,4822.3462407875695,4.24109852894224,422.0582319553604,1.7470332940093312,,,
2021-04-25,68.05028184628232,7349.719218313461,1853.0727851473273,5021.946746687627,4.84776404232264,383.93980025237914,1.7877649812526932,,,
2021-04-26,68.54575705842406,7341.815132420025,1898.750113195848,5103.046027714924,4.694868790544803,334.74722608516475,1.8435480511192615,,,
2021-04-27,68.32759108066301,7382.0473653310755,1889.297549808642,5121.767788308098,4.8421405429018085,306.3306974081218,1.7787644533356888,,,
2021-04-28,67.66933628756013,7508.521926808832,1778.7939913927685,4952.5286398442995,4.565588604849476,312.684081798399,1.8488621381888088,,,
2021-04-29,68.15804696308955,7409.230899446977,1820.9396003263785,4966.956287550601,4.499000039358287,364.5946001450506,1.7063269811104398,,,
2021-04-30,68.5673099131292,7233.593839844655,1922.3026066004752,5088.591274454281,4.849959636374367,413.5279019047514,1.98567214020188,,,
2021-05-01,67.30927781005684,7515.822320852785,1769.5733079401102,4958.027575981452,4.810388539194537,314.604371207104,1.9001162491796961,,,
2021-05-02,67.64895950326317,7407.102577942944,1820.164807820464,5000.76857188188,5.002276555390305,367.6914122814756,1.8175431555143624,,,
2021-05-03,67.70379720556105,7449.054088880477,1804.7520607294127,4982.4672479543715,4.83184324990955,345.0058352077571,1.9693295644857682,,,
2021-05-04,67.79591666702416,7467.66361194196,1797.3847735643733,4967.765339154319,4.671393002530509,334.95161449366685,1.6970142535810562,,,
2021-05-05,67.76077566657334,7371.0029636637855,1798.317711813306,4908.552542718303,4.718195731092991,430.6793245229085,1.9501405898961746,,,
2021-05-06,68.11865600413904,7347.890405564547,1911.224423096107,5173.054947461265,5.215527169081768,313.0790655653194,1.7808711701112756,,,
2021-05-07,68.256637129968,7309.9339704364675,1879.9924885776538,5052.001675484626,4.843306534364402,390.0754188414646,1.8195756751953942,,,
2021-05-08,68.03310982538012,7418.846779298162,1844.9172127148986,5048.144370786121,4.803769269981609,325.0067048082145,1.9559120285032254,,,
2021-05-09,67.52942249443915,7410.483530691428,1792.058579771251,4934.5155077592935,4.871309752701499,397.4578895373204,1.848668713209751,,,
2021-05-10,67.68096419040656,7432.613188404334,1813.9006646945265,4998.357324687423,4.923290794802399,350.01098072750773,2.178536939499047,,,
2021-05-11,67.73739230617429,7223.224772755178,1908.6837543980187,5107.11266194381,5.577735851810852,440.9205342472991,2.0556682100207073,,,
2021-05-12,67.4326405817294,7388.045886165467,1810.3981703379495,4977.053683089812,5.145345695805222,398.9564009120959,2.1204001661011658,,,
2021-05-13,67.38099233158961,7433.635804107262,1821.5328471280197,5042.427815948019,5.280504021870544,339.44813698271383,1.817348624171168,,,
2021-05-14,67.71711004144161,7202.104336534159,1934.5097599349178,5162.62670762873,5.791713158070262,429.7584635471929,1.9593041117654022,,,
2021-05-15,67.32948835308335,7355.967353323966,1865.0161350456187,5112.765544197436,5.658132659758792,362.7624778690104,2.1775102593766005,,,
2021-05-16,68.0969580043321,7243.179975608904,1934.759898657446,5163.776627594843,5.413741235598753,388.37015106928794,2.170631640520164,,,
2021-05-17,67.9393333184047,7206.33029928764,1933.0628360134165,5144.90855332648,5.558637951695913,427.34115569559026,2.148830276344789,,,
2021-05-18,67.10023816468538,7295.394633811593,1828.9149361980365,4989.50014814521,5.616623856799884,468.46169594086166,2.031902238001711,,,
2021-05-19,67.51352828255179,7179.514477016442,1888.0602454703753,5038.008825596956,5.646923558476038,510.4102161455893,1.985547340112633,,,
2021-05-20,67.15863364104402,7339.859300335162,1874.538952720468,5140.663281000099,5.900408504359492,366.96700876425353,2.0674989606708913,,,
2021-05-21,67.10651583151788,7300.788787445252,1857.351786324336,5070.351490458899,5.823622565914637,427.5214796493286,2.136411500003408,,,
2021-05-22,67.50657433929071,7238.986347693385,1901.0190703428063,5115.133425821406,5.751068688280336,434.73981437810687,1.9887166696045988,,,
2021-05-23,67.93874009764642,7195.459139322042,1956.21743261768,5198.726290786894,5.73289064698618,409.2690699058581,1.9988220597163826,,,
2021-05-24,68.66433872289312,7207.583802923826,1971.8290027672542,5193.576276396197,5.124378797861277,377.62994361710673,2.121054684624292,,,
2021-05-25,67.63168593696771,7218.064872411458,1928.5767370546032,5164.714230898524,5.832639590941807,421.2142062702875,2.0006483360564715,,,
2021-05-26,67.3494890054488,7128.613434907033,2012.4117166796877,5344.737772798458,6.687746144590266,404.63074757538925,2.0307136630764417,,,
2021-05-27,67.35026066205009,7243.650899227799,1931.3197195047446,5212.081656804869,6.134637234235505,392.1994513912704,2.041417001441935,,,
2021-05-28,67.42566199997688,7240.307766269637,1927.745977516922,5194.220945378178,6.032432831400034,400.00976183421074,2.3379488379330127,,,
2021-05-29,67.32498359584919,7247.006455510264,1917.4210713224315,5178.913925784505,6.055674439069048,406.2172053366967,2.106856602421986,,,
2021-05-30,66.4080526284894,7384.569233286773,1802.6200517335337,5029.761874758024,6.111597759512105,412.1557020463098,2.2420535881611285,,,
2021-05-31,68.20909635578467,7016.157642675802,2014.7675656862998,5200.209001714852,5.83520634127423,513.9061436476936,2.1708824453644753,,,
2021-06-01,67.71810859374261,7156.830913232854,1971.0194424067513,5226.917566235537,6.064537224308022,429.39478375870704,2.0739219217266527,,,
2021-06-02,67.73468093001013,7032.395632876711,2005.1497778914097,5223.695223831136,6.280768403664094,510.6521669698857,2.161353793368262,,,
2021-06-03,66.8032597972001,7275.24999209282,1908.3510634868535,5214.916302892546,6.509373178951309,389.3111785486124,2.126492516296278,,,
2021-06-04,66.39763396409633,7245.678282613374,1881.1008690774984,5150.831376500984,6.7106225539849005,452.9456310397529,2.2349884540471816,,,
2021-06-05,67.28276419016332,7175.215803060035,1990.4670383708572,5326.291582476659,6.6457385976181085,386.700398976393,2.212179374769587,,,
2021-06-06,66.98606859482892,7302.230519215711,1913.4710027122421,5233.976152736338,6.364963925512897,355.9307273939871,2.1878791667964235,,,
2021-06-07,66.87726131084847,7271.359118450733,1918.3976107491483,5233.768926738657,6.510720769770141,380.643868112831,2.276714634754792,,,
2021-06-08,67.7841510072491,7015.650659559741,2032.0035933139225,5277.1941407368995,6.311859772692676,491.1444894664636,2.3673446219347545,,,
2021-06-09,66.50502161229068,7252.179975820216,1908.2852352486773,5221.511393041178,6.807117652074414,412.46348011893787,2.3601687346746125,,,
2021-06-10,67.30668560822295,7107.3927428485995,1985.7982678681158,5261.699510575505,6.586801400787921,460.3594223162552,2.394873044697061,,,
2021-06-11,67.16085436657977,7105.480817188206,1999.3139899380285,5307.586361110269,6.834000557955452,445.37669538925843,2.238066745163841,,,
2021-06-12,66.49437888602256,7131.900215769432,1959.7988153643519,5274.370343043726,7.2041122292100805,468.35126502512753,2.405219107407975,,,
2021-06-13,67.03359447089233,7105.133676593247,2010.142897920475,5346.2034611079425,6.996834222869096,431.1734112141108,2.352635643220075,,,
2021-06-14,66.72541566630726,7119.276064375333,1942.4874648372484,5200.4577973876385,6.84324031997211,502.61460457810716,2.096651818551089,,,
2021-06-15,67.09297865443818,7021.752598429084,2098.227774114374,5510.105158944392,7.201704667904938,395.63990651651125,2.4632966554308973,,,
2021-06-16,67.29102669149381,7066.8658154876,2016.6692157509135,5314.264483038699,6.758980955758932,460.63074324866636,2.2334499936680134,,,
2021-06-17,66.48154282327737,7056.234724414605,1963.2114500273021,5228.508439631483,7.242543051927402,539.7509630512678,2.402529889047465,,,
2021-06-18,66.83789294996659,7073.742985354893,2025.8292215899207,5379.825171939537,7.239594714803169,441.3875654987137,2.3982580667950684,,,
2021-06-19,66.23844842097493,7070.381027493511,1998.0996203018376,5351.66118863628,7.747298731288851,481.9944471291924,2.263758356128086,,,
2021-06-20,66.2145392828608,7084.1278595126005,1984.5790905980857,5327.705940804451,7.669803896624841,485.1482772397917,2.3822677522210403,,,
2021-06-21,66.73479748910465,6901.703104669901,2063.327741550346,5354.401687400361,7.455185735546379,562.804444237131,2.449673297771618,,,
2021-06-22,65.52233340722094,7114.925644624256,1912.835589330794,5211.916621513566,7.82393351276001,544.0298687122513,2.4130744504894004,,,
2021-06-23,66.26374774263462,7011.76663614641,2027.8990889060337,5384.391178548657,7.819949524083477,500.5695938304446,2.5383827539490653,,,
2021-06-24,65.96143744201899,7055.4918995119615,1971.5236851846832,5291.490132805246,7.824990196866139,530.1034940071843,2.470613333806254,,,
2021-06-25,66.3130831830222,6965.447866532358,2046.5742899408601,5394.064619472457,7.826639686800378,521.6768420474812,2.5199347146784836,,,
2021-06-26,66.31900077402827,7060.979494639597,2018.9587112728018,5393.779882319133,7.737875359790143,463.42624514212093,2.7039956439700576,,,
2021-06-27,65.61930380215581,7098.725086529129,1924.282612868986,5223.437472500421,7.812815794361588,545.9216473846384,2.5254469774868187,,,
2021-06-28,66.39846715858687,6911.798950068674,2091.3624748374077,5462.62213296347,7.875620265925342,514.8617089008259,2.574001039488844,,,
2021-06-29,66.1656943421153,7003.491589932338,1995.7478931357828,5300.614521605851,7.802414856403077,551.8235436479339,2.472035678557621,,,
2021-06-30,66.30328148593753,6879.97306316767,2100.7481365632893,5469.712597534225,7.998962923752326,534.0169524718893,2.54632608874217,,,
