{
  "appParameters": {
    "assetList": [
      "WAP11",
      "WAP12",
      "WAP13",
      "WAP21",
      "WAP22",
      "WAP23",
      "IVP11_MBFP",
      "IVP11_SUBFP"
    ],
    "appName": "Pump Performance",
    "dateMin": "2021-01-01",
    "dateMax": "2021-07-01"
  },
  "layout": [
    {"header":  12},
    {"separator": 12},
    {"assetSelector": 12},
    {"separator": 12},
    {"pumpPerformance": 12},
    {"separator": 12},
    {"timeSeries": 12},
    {"separator": 12},
    {"correlation": 12},
    {"separator": 12}
  ],
  "blockParameters": {
    "pumpPerformance": {
      "lookBack": "7D",
      "markFreq": "1M"
    },
    "timeSeries": {
      "maxVars": 4
    },
    "correlation": {
      "maxVars": 6
    }
  }
}